CPU/control_storetrace.vcd
$version Generated by VerilatedVcd $end
$date Mon Oct 18 16:26:16 2021
 $end
$timescale   1ns $end

 $scope module TOP $end
  $var wire  1 =! clock $end
  $var wire  4 '" io_ALU_OP [3:0] $end
  $var wire  5 W" io_ALU_RD [4:0] $end
  $var wire  1 Q# io_BRANCH_ADDRESS_SOURCE_ALU $end
  $var wire  1 I# io_BRANCH_CONDITION $end
  $var wire 32 O" io_BRANCH_IMMEDIATE [31:0] $end
  $var wire  2 A# io_BRANCH_SELECT [1:0] $end
  $var wire  1 7" io_CHOOSE_IMMEDIATE $end
  $var wire  1 ?" io_CHOOSE_MEMORY_LOAD $end
  $var wire  1 g" io_DATA_IN $end
  $var wire  1 9# io_EXTENSION $end
  $var wire 32 G" io_IMMEDIATE [31:0] $end
  $var wire 32 M! io_INSTRUCTION [31:0] $end
  $var wire  1 ]! io_INSTRUCTION_LOADED $end
  $var wire  1 1# io_LOAD_ADDRESS_IN $end
  $var wire  1 !# io_LOAD_READY $end
  $var wire  2 )# io_LOAD_SIZE [1:0] $end
  $var wire  1 /" io_PROCEDURE_BRANCHING $end
  $var wire  5 u! io_RD [4:0] $end
  $var wire  1 U! io_RECIEVED $end
  $var wire  5 e! io_RS1 [4:0] $end
  $var wire  5 m! io_RS2 [4:0] $end
  $var wire  1 w" io_STORE_ADDRESS_IN $end
  $var wire  1 _" io_STORE_READY $end
  $var wire  2 o" io_STORE_SIZE [1:0] $end
  $var wire  1 Y# io_UPDATE_PC $end
  $var wire  1 }! io_WRITE_EN $end
  $var wire  1 E! reset $end
  $scope module control_store $end
   $var wire  1 ; RECIEVED $end
   $var wire  1 =! clock $end
   $var wire  7 C hi [6:0] $end
   $var wire  1 S hi_1 $end
   $var wire  4 c hi_3 [3:0] $end
   $var wire  1 { hi_7 $end
   $var wire  1 -! hi_9 $end
   $var wire 32 3 instruction [31:0] $end
   $var wire  4 '" io_ALU_OP [3:0] $end
   $var wire  5 W" io_ALU_RD [4:0] $end
   $var wire  1 Q# io_BRANCH_ADDRESS_SOURCE_ALU $end
   $var wire  1 I# io_BRANCH_CONDITION $end
   $var wire 32 O" io_BRANCH_IMMEDIATE [31:0] $end
   $var wire  2 A# io_BRANCH_SELECT [1:0] $end
   $var wire  1 7" io_CHOOSE_IMMEDIATE $end
   $var wire  1 ?" io_CHOOSE_MEMORY_LOAD $end
   $var wire  1 g" io_DATA_IN $end
   $var wire  1 9# io_EXTENSION $end
   $var wire 32 G" io_IMMEDIATE [31:0] $end
   $var wire 32 M! io_INSTRUCTION [31:0] $end
   $var wire  1 ]! io_INSTRUCTION_LOADED $end
   $var wire  1 1# io_LOAD_ADDRESS_IN $end
   $var wire  1 !# io_LOAD_READY $end
   $var wire  2 )# io_LOAD_SIZE [1:0] $end
   $var wire  1 /" io_PROCEDURE_BRANCHING $end
   $var wire  5 u! io_RD [4:0] $end
   $var wire  1 U! io_RECIEVED $end
   $var wire  5 e! io_RS1 [4:0] $end
   $var wire  5 m! io_RS2 [4:0] $end
   $var wire  1 w" io_STORE_ADDRESS_IN $end
   $var wire  1 _" io_STORE_READY $end
   $var wire  2 o" io_STORE_SIZE [1:0] $end
   $var wire  1 Y# io_UPDATE_PC $end
   $var wire  1 }! io_WRITE_EN $end
   $var wire  5 K lo [4:0] $end
   $var wire  1 [ lo_1 $end
   $var wire  6 k lo_2 [5:0] $end
   $var wire  8 s lo_4 [7:0] $end
   $var wire 10 %! lo_5 [9:0] $end
   $var wire  3 5! lo_7 [2:0] $end
   $var wire  1 E! reset $end
   $var wire  3 + stallState [2:0] $end
   $var wire  3 # stateReg [2:0] $end
  $upscope $end
 $upscope $end
$enddefinitions $end


#8
b000 #
b000 +
b00000000000000000000000000000000 3
0;
b0000000 C
b00000 K
0S
0[
b0000 c
b000000 k
b00000000 s
0{
b0000000000 %!
0-!
b000 5!
0=!
1E!
b00000000000000000000000000000000 M!
0U!
0]!
b00000 e!
b00000 m!
b00000 u!
0}!
b0000 '"
0/"
07"
0?"
b00000000000000000000000000000000 G"
b00000000000000000000000000000000 O"
b00000 W"
0_"
0g"
b01 o"
0w"
0!#
b00 )#
01#
09#
b01 A#
0I#
0Q#
0Y#
#10
b101 +
1=!
#15
0=!
#18
0E!
b11111111100111111000010100010011 M!
1]!
#20
b001 #
b11111111100111111000010100010011 3
1;
b1111111 C
b01010 K
1S
b0101 c
b111111 k
b11111000 s
1{
b1111111100 %!
1=!
1U!
b11111 e!
b11001 m!
17"
b11111111111111111111111111111001 G"
b11111111111111111000111111111000 O"
#25
0=!
#28
0]!
#30
b010 #
0;
1=!
0U!
b00000 e!
b00000 m!
07"
b00000000000000000000000000000000 G"
b00000000000000000000000000000000 O"
1Y#
#35
0=!
#38
#40
b011 #
1=!
b01010 u!
1}!
b11 )#
19#
0Y#
#45
0=!
#48
#50
b000 #
1=!
b00000 u!
0}!
b00 )#
09#
