CPU/control_storetrace.vcd
$version Generated by VerilatedVcd $end
$date Tue Oct 19 17:31:34 2021
 $end
$timescale   1ns $end

 $scope module TOP $end
  $var wire  1 E! clock $end
  $var wire  4 /" io_ALU_OP [3:0] $end
  $var wire  5 _" io_ALU_RD [4:0] $end
  $var wire  1 Y# io_BRANCH_ADDRESS_SOURCE_ALU $end
  $var wire  1 Q# io_BRANCH_CONDITION $end
  $var wire 32 W" io_BRANCH_IMMEDIATE [31:0] $end
  $var wire  2 I# io_BRANCH_SELECT [1:0] $end
  $var wire  1 ?" io_CHOOSE_IMMEDIATE $end
  $var wire  1 G" io_CHOOSE_MEMORY_LOAD $end
  $var wire  1 o" io_DATA_IN $end
  $var wire  1 A# io_EXTENSION $end
  $var wire 32 O" io_IMMEDIATE [31:0] $end
  $var wire 32 U! io_INSTRUCTION [31:0] $end
  $var wire  1 e! io_INSTRUCTION_LOADED $end
  $var wire  1 9# io_LOAD_ADDRESS_IN $end
  $var wire  1 )# io_LOAD_READY $end
  $var wire  2 1# io_LOAD_SIZE [1:0] $end
  $var wire  1 7" io_PROCEDURE_BRANCHING $end
  $var wire  5 }! io_RD [4:0] $end
  $var wire  1 ]! io_RECIEVED $end
  $var wire  5 m! io_RS1 [4:0] $end
  $var wire  5 u! io_RS2 [4:0] $end
  $var wire  1 !# io_STORE_ADDRESS_IN $end
  $var wire  1 g" io_STORE_READY $end
  $var wire  2 w" io_STORE_SIZE [1:0] $end
  $var wire  1 a# io_UPDATE_PC $end
  $var wire  1 '" io_WRITE_EN $end
  $var wire  1 M! reset $end
  $scope module control_store $end
   $var wire  1 ; RECIEVED $end
   $var wire  1 C STORE_WAS_READY $end
   $var wire  1 E! clock $end
   $var wire  7 K hi [6:0] $end
   $var wire  1 [ hi_1 $end
   $var wire  4 k hi_3 [3:0] $end
   $var wire  1 %! hi_7 $end
   $var wire  1 5! hi_9 $end
   $var wire 32 3 instruction [31:0] $end
   $var wire  4 /" io_ALU_OP [3:0] $end
   $var wire  5 _" io_ALU_RD [4:0] $end
   $var wire  1 Y# io_BRANCH_ADDRESS_SOURCE_ALU $end
   $var wire  1 Q# io_BRANCH_CONDITION $end
   $var wire 32 W" io_BRANCH_IMMEDIATE [31:0] $end
   $var wire  2 I# io_BRANCH_SELECT [1:0] $end
   $var wire  1 ?" io_CHOOSE_IMMEDIATE $end
   $var wire  1 G" io_CHOOSE_MEMORY_LOAD $end
   $var wire  1 o" io_DATA_IN $end
   $var wire  1 A# io_EXTENSION $end
   $var wire 32 O" io_IMMEDIATE [31:0] $end
   $var wire 32 U! io_INSTRUCTION [31:0] $end
   $var wire  1 e! io_INSTRUCTION_LOADED $end
   $var wire  1 9# io_LOAD_ADDRESS_IN $end
   $var wire  1 )# io_LOAD_READY $end
   $var wire  2 1# io_LOAD_SIZE [1:0] $end
   $var wire  1 7" io_PROCEDURE_BRANCHING $end
   $var wire  5 }! io_RD [4:0] $end
   $var wire  1 ]! io_RECIEVED $end
   $var wire  5 m! io_RS1 [4:0] $end
   $var wire  5 u! io_RS2 [4:0] $end
   $var wire  1 !# io_STORE_ADDRESS_IN $end
   $var wire  1 g" io_STORE_READY $end
   $var wire  2 w" io_STORE_SIZE [1:0] $end
   $var wire  1 a# io_UPDATE_PC $end
   $var wire  1 '" io_WRITE_EN $end
   $var wire  5 S lo [4:0] $end
   $var wire  1 c lo_1 $end
   $var wire  6 s lo_2 [5:0] $end
   $var wire  8 { lo_4 [7:0] $end
   $var wire 10 -! lo_5 [9:0] $end
   $var wire  3 =! lo_7 [2:0] $end
   $var wire  1 M! reset $end
   $var wire  3 + stallState [2:0] $end
   $var wire  3 # stateReg [2:0] $end
  $upscope $end
 $upscope $end
$enddefinitions $end


#8
b000 #
b000 +
b00000000000000000000000000000000 3
0;
0C
b0000000 K
b00000 S
0[
0c
b0000 k
b000000 s
b00000000 {
0%!
b0000000000 -!
05!
b000 =!
0E!
1M!
b00000000000000000000000000000000 U!
0]!
0e!
b00000 m!
b00000 u!
b00000 }!
0'"
b0000 /"
07"
0?"
0G"
b00000000000000000000000000000000 O"
b00000000000000000000000000000000 W"
b00000 _"
0g"
0o"
b01 w"
0!#
0)#
b00 1#
09#
0A#
b01 I#
0Q#
0Y#
0a#
#10
b101 +
1E!
#15
0E!
#18
0M!
b11111111100111111000010100000011 U!
1e!
#20
b001 #
b11111111100111111000010100000011 3
1;
b1111111 K
b01010 S
1[
b0101 k
b111111 s
b11111000 {
1%!
b1111111100 -!
1E!
1]!
b11111 m!
b11001 u!
1?"
b11111111111111111111111111111001 O"
b11111111111111111000111111111000 W"
#25
0E!
#28
0e!
#30
b010 #
0;
1E!
0]!
b00000 m!
b00000 u!
0?"
b00000000000000000000000000000000 O"
b00000000000000000000000000000000 W"
1a#
#35
0E!
#38
#40
b011 #
1E!
b01010 }!
b11 1#
19#
1A#
0a#
#45
0E!
#48
#50
b100 #
1E!
b00 1#
09#
0A#
#55
0E!
#58
#60
b101 #
b100 +
1E!
b00000 }!
#65
0E!
#68
1)#
#70
b100 #
1E!
b01010 }!
1'"
1G"
#75
0E!
#78
#80
b000 #
1E!
b00000 }!
0'"
0G"
#85
0E!
#88
#90
1E!
#95
0E!
#98
#100
1E!
#105
0E!
#108
#110
1E!
#115
0E!
#118
1g"
#120
1C
1E!
#125
0E!
#128
0g"
#130
0C
1E!
