CPU/control_storetrace.vcd
$version Generated by VerilatedVcd $end
$date Wed Oct 20 10:08:56 2021
 $end
$timescale   1ns $end

 $scope module TOP $end
  $var wire  1 M! clock $end
  $var wire  4 7" io_ALU_OP [3:0] $end
  $var wire  5 g" io_ALU_RD [4:0] $end
  $var wire  1 a# io_BRANCH_ADDRESS_SOURCE_ALU $end
  $var wire  1 Y# io_BRANCH_CONDITION $end
  $var wire 32 _" io_BRANCH_IMMEDIATE [31:0] $end
  $var wire  2 Q# io_BRANCH_SELECT [1:0] $end
  $var wire  1 G" io_CHOOSE_IMMEDIATE $end
  $var wire  1 O" io_CHOOSE_MEMORY_LOAD $end
  $var wire  1 w" io_DATA_IN $end
  $var wire  1 I# io_EXTENSION $end
  $var wire 32 W" io_IMMEDIATE [31:0] $end
  $var wire 32 ]! io_INSTRUCTION [31:0] $end
  $var wire  1 m! io_INSTRUCTION_LOADED $end
  $var wire  1 A# io_LOAD_ADDRESS_IN $end
  $var wire  1 1# io_LOAD_READY $end
  $var wire  2 9# io_LOAD_SIZE [1:0] $end
  $var wire  1 ?" io_PROCEDURE_BRANCHING $end
  $var wire  5 '" io_RD [4:0] $end
  $var wire  1 e! io_RECIEVED $end
  $var wire  5 u! io_RS1 [4:0] $end
  $var wire  5 }! io_RS2 [4:0] $end
  $var wire  1 )# io_STORE_ADDRESS_IN $end
  $var wire  1 o" io_STORE_READY $end
  $var wire  2 !# io_STORE_SIZE [1:0] $end
  $var wire  1 i# io_UPDATE_PC $end
  $var wire  1 /" io_WRITE_EN $end
  $var wire  1 U! reset $end
  $scope module control_store $end
   $var wire  1 K LOAD_READY $end
   $var wire  1 ; RECIEVED $end
   $var wire  1 C STORE_READY $end
   $var wire  1 M! clock $end
   $var wire  7 S hi [6:0] $end
   $var wire  1 c hi_1 $end
   $var wire  4 s hi_3 [3:0] $end
   $var wire  1 -! hi_7 $end
   $var wire  1 =! hi_9 $end
   $var wire 32 3 instruction [31:0] $end
   $var wire  4 7" io_ALU_OP [3:0] $end
   $var wire  5 g" io_ALU_RD [4:0] $end
   $var wire  1 a# io_BRANCH_ADDRESS_SOURCE_ALU $end
   $var wire  1 Y# io_BRANCH_CONDITION $end
   $var wire 32 _" io_BRANCH_IMMEDIATE [31:0] $end
   $var wire  2 Q# io_BRANCH_SELECT [1:0] $end
   $var wire  1 G" io_CHOOSE_IMMEDIATE $end
   $var wire  1 O" io_CHOOSE_MEMORY_LOAD $end
   $var wire  1 w" io_DATA_IN $end
   $var wire  1 I# io_EXTENSION $end
   $var wire 32 W" io_IMMEDIATE [31:0] $end
   $var wire 32 ]! io_INSTRUCTION [31:0] $end
   $var wire  1 m! io_INSTRUCTION_LOADED $end
   $var wire  1 A# io_LOAD_ADDRESS_IN $end
   $var wire  1 1# io_LOAD_READY $end
   $var wire  2 9# io_LOAD_SIZE [1:0] $end
   $var wire  1 ?" io_PROCEDURE_BRANCHING $end
   $var wire  5 '" io_RD [4:0] $end
   $var wire  1 e! io_RECIEVED $end
   $var wire  5 u! io_RS1 [4:0] $end
   $var wire  5 }! io_RS2 [4:0] $end
   $var wire  1 )# io_STORE_ADDRESS_IN $end
   $var wire  1 o" io_STORE_READY $end
   $var wire  2 !# io_STORE_SIZE [1:0] $end
   $var wire  1 i# io_UPDATE_PC $end
   $var wire  1 /" io_WRITE_EN $end
   $var wire  5 [ lo [4:0] $end
   $var wire  1 k lo_1 $end
   $var wire  6 { lo_2 [5:0] $end
   $var wire  8 %! lo_4 [7:0] $end
   $var wire 10 5! lo_5 [9:0] $end
   $var wire  3 E! lo_7 [2:0] $end
   $var wire  1 U! reset $end
   $var wire  3 + stallState [2:0] $end
   $var wire  3 # stateReg [2:0] $end
  $upscope $end
 $upscope $end
$enddefinitions $end


#8
b000 #
b000 +
b00000000000000000000000000000000 3
0;
0C
0K
b0000000 S
b00000 [
0c
0k
b0000 s
b000000 {
b00000000 %!
0-!
b0000000000 5!
0=!
b000 E!
0M!
1U!
b00000000000000000000000000000000 ]!
0e!
0m!
b00000 u!
b00000 }!
b00000 '"
0/"
b0000 7"
0?"
0G"
0O"
b00000000000000000000000000000000 W"
b00000000000000000000000000000000 _"
b00000 g"
0o"
0w"
b01 !#
0)#
01#
b00 9#
0A#
0I#
b01 Q#
0Y#
0a#
0i#
#10
b101 +
1M!
#15
0M!
#18
0U!
b11111110010011111000110010100011 ]!
1m!
#20
b001 #
b11111110010011111000110010100011 3
1;
b1111111 S
b11001 [
1c
1k
b1100 s
b111111 {
b11111000 %!
b1111110010 5!
1M!
1e!
b11111 u!
b00100 }!
1G"
b11111111111111111111111111111001 W"
b11111111111111111000011111100100 _"
b11 !#
#25
0M!
#28
0m!
1o"
#30
b101 #
b001 +
0;
1C
1M!
0e!
b00000 u!
b00000 }!
0G"
b00000000000000000000000000000000 W"
b00000000000000000000000000000000 _"
b01 !#
#35
0M!
#38
0o"
#40
0C
1M!
#45
0M!
#48
1o"
#50
b001 #
1C
1M!
b11111 u!
b00100 }!
1G"
b11111111111111111111111111111001 W"
b11111111111111111000011111100100 _"
1w"
b11 !#
#55
0M!
#58
0o"
#60
b010 #
0C
1M!
b00000 u!
b00000 }!
0G"
b00000000000000000000000000000000 W"
b00000000000000000000000000000000 _"
0w"
b01 !#
1i#
#65
0M!
#68
#70
b011 #
1M!
b11001 '"
1)#
b11 9#
1I#
0i#
#75
0M!
#78
#80
b000 #
1M!
b00000 '"
0)#
b00 9#
0I#
