CPU/control_storetrace.vcd
$version Generated by VerilatedVcd $end
$date Sun Oct 17 23:02:24 2021
 $end
$timescale   1ns $end

 $scope module TOP $end
  $var wire  1 5! clock $end
  $var wire  4 }! io_ALU_OP [3:0] $end
  $var wire  5 O" io_ALU_RD [4:0] $end
  $var wire  1 I# io_BRANCH_ADDRESS_SOURCE_ALU $end
  $var wire  1 A# io_BRANCH_CONDITION $end
  $var wire 32 G" io_BRANCH_IMMEDIATE [31:0] $end
  $var wire  2 9# io_BRANCH_SELECT [1:0] $end
  $var wire  1 /" io_CHOOSE_IMMEDIATE $end
  $var wire  1 7" io_CHOOSE_MEMORY_LOAD $end
  $var wire  1 _" io_DATA_IN $end
  $var wire  1 1# io_EXTENSION $end
  $var wire 32 ?" io_IMMEDIATE [31:0] $end
  $var wire 32 E! io_INSTRUCTION [31:0] $end
  $var wire  1 U! io_INSTRUCTION_LOADED $end
  $var wire  1 )# io_LOAD_ADDRESS_IN $end
  $var wire  1 w" io_LOAD_READY $end
  $var wire  2 !# io_LOAD_SIZE [1:0] $end
  $var wire  1 '" io_PROCEDURE_BRANCHING $end
  $var wire  5 m! io_RD [4:0] $end
  $var wire  1 M! io_RECIEVED $end
  $var wire  5 ]! io_RS1 [4:0] $end
  $var wire  5 e! io_RS2 [4:0] $end
  $var wire  1 o" io_STORE_ADDRESS_IN $end
  $var wire  1 W" io_STORE_READY $end
  $var wire  2 g" io_STORE_SIZE [1:0] $end
  $var wire  1 Q# io_UPDATE_PC $end
  $var wire  1 u! io_WRITE_EN $end
  $var wire  1 =! reset $end
  $scope module control_store $end
   $var wire  1 5! clock $end
   $var wire  7 ; hi [6:0] $end
   $var wire  1 K hi_1 $end
   $var wire  4 [ hi_3 [3:0] $end
   $var wire  1 s hi_7 $end
   $var wire  1 %! hi_9 $end
   $var wire 32 3 instruction [31:0] $end
   $var wire  4 }! io_ALU_OP [3:0] $end
   $var wire  5 O" io_ALU_RD [4:0] $end
   $var wire  1 I# io_BRANCH_ADDRESS_SOURCE_ALU $end
   $var wire  1 A# io_BRANCH_CONDITION $end
   $var wire 32 G" io_BRANCH_IMMEDIATE [31:0] $end
   $var wire  2 9# io_BRANCH_SELECT [1:0] $end
   $var wire  1 /" io_CHOOSE_IMMEDIATE $end
   $var wire  1 7" io_CHOOSE_MEMORY_LOAD $end
   $var wire  1 _" io_DATA_IN $end
   $var wire  1 1# io_EXTENSION $end
   $var wire 32 ?" io_IMMEDIATE [31:0] $end
   $var wire 32 E! io_INSTRUCTION [31:0] $end
   $var wire  1 U! io_INSTRUCTION_LOADED $end
   $var wire  1 )# io_LOAD_ADDRESS_IN $end
   $var wire  1 w" io_LOAD_READY $end
   $var wire  2 !# io_LOAD_SIZE [1:0] $end
   $var wire  1 '" io_PROCEDURE_BRANCHING $end
   $var wire  5 m! io_RD [4:0] $end
   $var wire  1 M! io_RECIEVED $end
   $var wire  5 ]! io_RS1 [4:0] $end
   $var wire  5 e! io_RS2 [4:0] $end
   $var wire  1 o" io_STORE_ADDRESS_IN $end
   $var wire  1 W" io_STORE_READY $end
   $var wire  2 g" io_STORE_SIZE [1:0] $end
   $var wire  1 Q# io_UPDATE_PC $end
   $var wire  1 u! io_WRITE_EN $end
   $var wire  5 C lo [4:0] $end
   $var wire  1 S lo_1 $end
   $var wire  6 c lo_2 [5:0] $end
   $var wire  8 k lo_4 [7:0] $end
   $var wire 10 { lo_5 [9:0] $end
   $var wire  3 -! lo_7 [2:0] $end
   $var wire  1 =! reset $end
   $var wire  3 + stallState [2:0] $end
   $var wire  3 # stateReg [2:0] $end
  $upscope $end
 $upscope $end
$enddefinitions $end


#8
b000 #
b000 +
b00000000000000000000000000000000 3
b0000000 ;
b00000 C
0K
0S
b0000 [
b000000 c
b00000000 k
0s
b0000000000 {
0%!
b000 -!
05!
1=!
b00000000000000000000000000000000 E!
0M!
0U!
b00000 ]!
b00000 e!
b00000 m!
0u!
b0000 }!
0'"
0/"
07"
b00000000000000000000000000000000 ?"
b00000000000000000000000000000000 G"
b00000 O"
0W"
0_"
b01 g"
0o"
0w"
b00 !#
0)#
01#
b01 9#
0A#
0I#
0Q#
#10
b101 +
15!
#15
05!
#18
0=!
b00000000011100110000001010110011 E!
1M!
1U!
#20
b001 #
b00000000011100110000001010110011 3
b00101 C
1S
b0010 [
b00110000 k
1s
b0000000011 {
15!
0M!
b00110 ]!
b00111 e!
b00000000000000000000000000000111 ?"
b00000000000000110000100000000110 G"
#25
05!
#28
0U!
#30
b010 #
15!
b00000 ]!
b00000 e!
b00000000000000000000000000000000 ?"
b00000000000000000000000000000000 G"
1Q#
#35
05!
#38
#40
b011 #
15!
b00101 m!
1u!
b11 !#
11#
0Q#
#45
05!
#48
#50
b100 #
15!
0u!
b00 !#
01#
#55
05!
#58
#60
b000 #
b100 +
15!
b00000 m!
