CPU/core_robintrace.vcd
$version Generated by VerilatedVcd $end
$date Tue Nov  9 03:19:23 2021
 $end
$timescale   1ns $end

 $scope module TOP $end
  $var wire  1 3( clock $end
  $var wire 32 C( io_INSTRUCTION [31:0] $end
  $var wire  1 S( io_INSTRUCTION_LOADED $end
  $var wire 32 [( io_PC [31:0] $end
  $var wire  1 K( io_RECIEVED $end
  $var wire  1 s( io_mem_write $end
  $var wire 32 %) io_mem_write_address [31:0] $end
  $var wire  8 {( io_mem_write_data [7:0] $end
  $var wire 32 c( io_rdAddr [31:0] $end
  $var wire  8 k( io_rdData [7:0] $end
  $var wire  1 ;( reset $end
  $scope module core_robin $end
   $var wire 32 1# PC [31:0] $end
   $var wire  1 =! branchCheck $end
   $var wire 32 -! branchImmBranchAddr [31:0] $end
   $var wire  1 3( clock $end
   $var wire  1 E! conditionalBranching $end
   $var wire  1 3( controlStore_clock $end
   $var wire  4 ; controlStore_io_ALU_OP [3:0] $end
   $var wire  1 { controlStore_io_BRANCH_ADDRESS_SOURCE_ALU $end
   $var wire  1 O" controlStore_io_BRANCH_CONDITION $end
   $var wire 32 [ controlStore_io_BRANCH_IMMEDIATE [31:0] $end
   $var wire  2 s controlStore_io_BRANCH_SELECT [1:0] $end
   $var wire  1 7" controlStore_io_CHOOSE_IMMEDIATE $end
   $var wire  1 K controlStore_io_CHOOSE_MEMORY_LOAD $end
   $var wire  1 _" controlStore_io_CHOOSE_PC $end
   $var wire  1 c controlStore_io_DATA_IN $end
   $var wire 32 S controlStore_io_IMMEDIATE [31:0] $end
   $var wire 32 C( controlStore_io_INSTRUCTION [31:0] $end
   $var wire  1 S( controlStore_io_INSTRUCTION_LOADED $end
   $var wire  1 C controlStore_io_PROCEDURE_BRANCHING $end
   $var wire  5 + controlStore_io_RD [4:0] $end
   $var wire  1 /" controlStore_io_RECIEVED $end
   $var wire  5 '" controlStore_io_RS1 [4:0] $end
   $var wire  5 # controlStore_io_RS2 [4:0] $end
   $var wire  1 k controlStore_io_STORE_ADDRESS_IN $end
   $var wire  1 ?" controlStore_io_STORE_READY $end
   $var wire  2 G" controlStore_io_STORE_SIZE [1:0] $end
   $var wire  1 W" controlStore_io_UPDATE_PC $end
   $var wire  1 3 controlStore_io_WRITE_EN $end
   $var wire  1 ;( controlStore_reset $end
   $var wire  1 3( dataPath_clock $end
   $var wire  4 ; dataPath_io_ALU_OP [3:0] $end
   $var wire  1 7" dataPath_io_CHOOSE_IMMEDIATE $end
   $var wire  1 K dataPath_io_CHOOSE_MEMORY_LOAD $end
   $var wire  1 _" dataPath_io_CHOOSE_PC $end
   $var wire  1 g" dataPath_io_EQUAL $end
   $var wire 32 S dataPath_io_IMMEDIATE [31:0] $end
   $var wire  1 o" dataPath_io_LESS_THAN $end
   $var wire 32 1# dataPath_io_PC [31:0] $end
   $var wire  1 C dataPath_io_PROCEDURE_BRANCHING $end
   $var wire  5 + dataPath_io_RD [4:0] $end
   $var wire  5 '" dataPath_io_RS1 [4:0] $end
   $var wire  5 # dataPath_io_RS2 [4:0] $end
   $var wire  1 w" dataPath_io_SIGNED_LESS_THAN $end
   $var wire  1 3 dataPath_io_WRITE_EN $end
   $var wire 32 !# dataPath_io_instruction_next_address [31:0] $end
   $var wire 32 )# dataPath_io_instruction_return_address [31:0] $end
   $var wire 32 !# dataPath_io_store_address [31:0] $end
   $var wire 32 %! dataPath_io_store_data [31:0] $end
   $var wire  1 ;( dataPath_reset $end
   $var wire 32 C( io_INSTRUCTION [31:0] $end
   $var wire  1 S( io_INSTRUCTION_LOADED $end
   $var wire 32 [( io_PC [31:0] $end
   $var wire  1 K( io_RECIEVED $end
   $var wire  1 s( io_mem_write $end
   $var wire 32 %) io_mem_write_address [31:0] $end
   $var wire  8 {( io_mem_write_data [7:0] $end
   $var wire 32 c( io_rdAddr [31:0] $end
   $var wire  8 k( io_rdData [7:0] $end
   $var wire  1 5! lessThanGreaterThanALUResult $end
   $var wire 32 )# noBranchNextAddr [31:0] $end
   $var wire  1 ;( reset $end
   $var wire  1 3( storeUnit_clock $end
   $var wire  1 k storeUnit_io_ADDRESS_IN $end
   $var wire  1 c storeUnit_io_DATA_IN $end
   $var wire  1 ?" storeUnit_io_STORE_READY $end
   $var wire  2 G" storeUnit_io_STORE_SIZE [1:0] $end
   $var wire  1 I# storeUnit_io_mem_write $end
   $var wire 32 A# storeUnit_io_mem_write_address [31:0] $end
   $var wire  8 9# storeUnit_io_mem_write_data [7:0] $end
   $var wire 32 !# storeUnit_io_store_address [31:0] $end
   $var wire 32 %! storeUnit_io_store_data [31:0] $end
   $var wire  1 ;( storeUnit_reset $end
   $scope module controlStore $end
    $var wire  1 q# LOAD_READY $end
    $var wire  1 /" RECIEVED $end
    $var wire  1 i# STORE_READY $end
    $var wire  1 3( clock $end
    $var wire  7 y# hi [6:0] $end
    $var wire  1 +$ hi_1 $end
    $var wire  1 ;$ hi_3 $end
    $var wire  6 K$ hi_5 [5:0] $end
    $var wire  1 c$ hi_9 $end
    $var wire 32 a# instruction [31:0] $end
    $var wire  4 ; io_ALU_OP [3:0] $end
    $var wire  1 { io_BRANCH_ADDRESS_SOURCE_ALU $end
    $var wire  1 O" io_BRANCH_CONDITION $end
    $var wire 32 [ io_BRANCH_IMMEDIATE [31:0] $end
    $var wire  2 s io_BRANCH_SELECT [1:0] $end
    $var wire  1 7" io_CHOOSE_IMMEDIATE $end
    $var wire  1 K io_CHOOSE_MEMORY_LOAD $end
    $var wire  1 _" io_CHOOSE_PC $end
    $var wire  1 c io_DATA_IN $end
    $var wire 32 S io_IMMEDIATE [31:0] $end
    $var wire 32 C( io_INSTRUCTION [31:0] $end
    $var wire  1 S( io_INSTRUCTION_LOADED $end
    $var wire  1 C io_PROCEDURE_BRANCHING $end
    $var wire  5 + io_RD [4:0] $end
    $var wire  1 /" io_RECIEVED $end
    $var wire  5 '" io_RS1 [4:0] $end
    $var wire  5 # io_RS2 [4:0] $end
    $var wire  1 k io_STORE_ADDRESS_IN $end
    $var wire  1 ?" io_STORE_READY $end
    $var wire  2 G" io_STORE_SIZE [1:0] $end
    $var wire  1 W" io_UPDATE_PC $end
    $var wire  1 3 io_WRITE_EN $end
    $var wire  5 #$ lo [4:0] $end
    $var wire  3 3$ lo_1 [2:0] $end
    $var wire  1 C$ lo_3 $end
    $var wire  4 S$ lo_4 [3:0] $end
    $var wire  8 [$ lo_6 [7:0] $end
    $var wire 10 k$ lo_7 [9:0] $end
    $var wire  1 ;( reset $end
    $var wire  3 Y# stallState [2:0] $end
    $var wire  3 Q# stateReg [2:0] $end
   $upscope $end
   $scope module dataPath $end
    $var wire 32 s$ ALU_in1 [31:0] $end
    $var wire 32 {$ ALU_in2 [31:0] $end
    $var wire  1 3( clock $end
    $var wire  1 3( cpuALU_clock $end
    $var wire  4 ; cpuALU_io_ALU_OP [3:0] $end
    $var wire 32 s$ cpuALU_io_ALUinput1 [31:0] $end
    $var wire 32 {$ cpuALU_io_ALUinput2 [31:0] $end
    $var wire 32 !# cpuALU_io_ALUoutput [31:0] $end
    $var wire  1 g" cpuALU_io_EQUAL $end
    $var wire  1 o" cpuALU_io_LESS_THAN $end
    $var wire  1 w" cpuALU_io_SIGNED_LESS_THAN $end
    $var wire  1 ;( cpuALU_reset $end
    $var wire  4 ; io_ALU_OP [3:0] $end
    $var wire  1 7" io_CHOOSE_IMMEDIATE $end
    $var wire  1 K io_CHOOSE_MEMORY_LOAD $end
    $var wire  1 _" io_CHOOSE_PC $end
    $var wire  1 g" io_EQUAL $end
    $var wire 32 S io_IMMEDIATE [31:0] $end
    $var wire  1 o" io_LESS_THAN $end
    $var wire 32 1# io_PC [31:0] $end
    $var wire  1 C io_PROCEDURE_BRANCHING $end
    $var wire  5 + io_RD [4:0] $end
    $var wire  5 '" io_RS1 [4:0] $end
    $var wire  5 # io_RS2 [4:0] $end
    $var wire  1 w" io_SIGNED_LESS_THAN $end
    $var wire  1 3 io_WRITE_EN $end
    $var wire 32 !# io_instruction_next_address [31:0] $end
    $var wire 32 )# io_instruction_return_address [31:0] $end
    $var wire 32 !# io_store_address [31:0] $end
    $var wire 32 %! io_store_data [31:0] $end
    $var wire 32 ]! rdData [31:0] $end
    $var wire  1 3( registerFile_clock $end
    $var wire  5 + registerFile_io_RD [4:0] $end
    $var wire  5 '" registerFile_io_RS1 [4:0] $end
    $var wire  5 # registerFile_io_RS2 [4:0] $end
    $var wire  1 3 registerFile_io_WRITE_EN $end
    $var wire 32 U! registerFile_io_rdData [31:0] $end
    $var wire 32 u! registerFile_io_rs1Data [31:0] $end
    $var wire 32 M! registerFile_io_rs2Data [31:0] $end
    $var wire  1 ;( reset $end
    $var wire 32 }! rs1_ALU [31:0] $end
    $var wire 32 e! rs2_ALU [31:0] $end
    $var wire 32 m! rs2_ALU_rd [31:0] $end
    $scope module cpuALU $end
     $var wire 32 !# ALUoutput [31:0] $end
     $var wire  1 g" EQUAL $end
     $var wire  1 o" LESS_THAN $end
     $var wire  1 w" SIGNED_LESS_THAN $end
     $var wire  1 3( clock $end
     $var wire  4 ; io_ALU_OP [3:0] $end
     $var wire 32 s$ io_ALUinput1 [31:0] $end
     $var wire 32 {$ io_ALUinput2 [31:0] $end
     $var wire 32 !# io_ALUoutput [31:0] $end
     $var wire  1 g" io_EQUAL $end
     $var wire  1 o" io_LESS_THAN $end
     $var wire  1 w" io_SIGNED_LESS_THAN $end
     $var wire  1 ;( reset $end
    $upscope $end
    $scope module registerFile $end
     $var wire  1 3( clock $end
     $var wire  5 + io_RD [4:0] $end
     $var wire  5 '" io_RS1 [4:0] $end
     $var wire  5 # io_RS2 [4:0] $end
     $var wire  1 3 io_WRITE_EN $end
     $var wire 32 U! io_rdData [31:0] $end
     $var wire 32 u! io_rs1Data [31:0] $end
     $var wire 32 M! io_rs2Data [31:0] $end
     $var wire 32 %% registerFile_0 [31:0] $end
     $var wire 32 -% registerFile_1 [31:0] $end
     $var wire 32 u% registerFile_10 [31:0] $end
     $var wire 32 }% registerFile_11 [31:0] $end
     $var wire 32 '& registerFile_12 [31:0] $end
     $var wire 32 /& registerFile_13 [31:0] $end
     $var wire 32 7& registerFile_14 [31:0] $end
     $var wire 32 ?& registerFile_15 [31:0] $end
     $var wire 32 G& registerFile_16 [31:0] $end
     $var wire 32 O& registerFile_17 [31:0] $end
     $var wire 32 W& registerFile_18 [31:0] $end
     $var wire 32 _& registerFile_19 [31:0] $end
     $var wire 32 5% registerFile_2 [31:0] $end
     $var wire 32 g& registerFile_20 [31:0] $end
     $var wire 32 o& registerFile_21 [31:0] $end
     $var wire 32 w& registerFile_22 [31:0] $end
     $var wire 32 !' registerFile_23 [31:0] $end
     $var wire 32 )' registerFile_24 [31:0] $end
     $var wire 32 1' registerFile_25 [31:0] $end
     $var wire 32 9' registerFile_26 [31:0] $end
     $var wire 32 A' registerFile_27 [31:0] $end
     $var wire 32 I' registerFile_28 [31:0] $end
     $var wire 32 Q' registerFile_29 [31:0] $end
     $var wire 32 =% registerFile_3 [31:0] $end
     $var wire 32 Y' registerFile_30 [31:0] $end
     $var wire 32 a' registerFile_31 [31:0] $end
     $var wire 32 E% registerFile_4 [31:0] $end
     $var wire 32 M% registerFile_5 [31:0] $end
     $var wire 32 U% registerFile_6 [31:0] $end
     $var wire 32 ]% registerFile_7 [31:0] $end
     $var wire 32 e% registerFile_8 [31:0] $end
     $var wire 32 m% registerFile_9 [31:0] $end
    $upscope $end
   $upscope $end
   $scope module storeUnit $end
    $var wire  1 3( clock $end
    $var wire  1 k io_ADDRESS_IN $end
    $var wire  1 c io_DATA_IN $end
    $var wire  1 ?" io_STORE_READY $end
    $var wire  2 G" io_STORE_SIZE [1:0] $end
    $var wire  1 I# io_mem_write $end
    $var wire 32 A# io_mem_write_address [31:0] $end
    $var wire  8 9# io_mem_write_data [7:0] $end
    $var wire 32 !# io_store_address [31:0] $end
    $var wire 32 %! io_store_data [31:0] $end
    $var wire 24 +( lo [23:0] $end
    $var wire  1 ;( reset $end
    $var wire  1 #( stateReg $end
    $var wire 32 i' store_data_buffer [31:0] $end
    $var wire 32 y' store_data_buffer_address [31:0] $end
    $var wire  2 q' store_data_size_buffer [1:0] $end
    $var wire  1 I# storing $end
   $upscope $end
  $upscope $end
 $upscope $end
$enddefinitions $end


#8
b00000 #
b00000 +
03
b0000 ;
0C
0K
b00000000000000000000000000000000 S
b00000000000000000000000000000000 [
0c
0k
b01 s
0{
b00000000000000000000000000000000 %!
b00000000000000000000000000000000 -!
05!
0=!
0E!
b00000000000000000000000000000000 M!
b00000000000000000000000000000000 U!
b00000000000000000000000000000000 ]!
b00000000000000000000000000000000 e!
b00000000000000000000000000000000 m!
b00000000000000000000000000000000 u!
b00000000000000000000000000000000 }!
b00000 '"
0/"
07"
1?"
b01 G"
0O"
0W"
0_"
0g"
0o"
0w"
b00000000000000000000000000000000 !#
b00000000000000000000000000000100 )#
b00000000000000000000000000000000 1#
b00000000 9#
b00000000000000000000000000000000 A#
0I#
b000 Q#
b000 Y#
b00000000000000000000000000000000 a#
0i#
0q#
b0000000 y#
b00000 #$
0+$
b000 3$
0;$
0C$
b000000 K$
b0000 S$
b00000000 [$
0c$
b0000000000 k$
b00000000000000000000000000000000 s$
b00000000000000000000000000000000 {$
b00000000000000000000000000000000 %%
b00000000000000000000000000000000 -%
b00000000000000000000000000000000 5%
b00000000000000000000000000000000 =%
b00000000000000000000000000000000 E%
b00000000000000000000000000000000 M%
b00000000000000000000000000000000 U%
b00000000000000000000000000000000 ]%
b00000000000000000000000000000000 e%
b00000000000000000000000000000000 m%
b00000000000000000000000000000000 u%
b00000000000000000000000000000000 }%
b00000000000000000000000000000000 '&
b00000000000000000000000000000000 /&
b00000000000000000000000000000000 7&
b00000000000000000000000000000000 ?&
b00000000000000000000000000000000 G&
b00000000000000000000000000000000 O&
b00000000000000000000000000000000 W&
b00000000000000000000000000000000 _&
b00000000000000000000000000000000 g&
b00000000000000000000000000000000 o&
b00000000000000000000000000000000 w&
b00000000000000000000000000000000 !'
b00000000000000000000000000000000 )'
b00000000000000000000000000000000 1'
b00000000000000000000000000000000 9'
b00000000000000000000000000000000 A'
b00000000000000000000000000000000 I'
b00000000000000000000000000000000 Q'
b00000000000000000000000000000000 Y'
b00000000000000000000000000000000 a'
b00000000000000000000000000000000 i'
b00 q'
b00000000000000000000000000000000 y'
0#(
b000000000000000000000000 +(
03(
0;(
b00000000000000000000000000000000 C(
0K(
0S(
b00000000000000000000000000000000 [(
b00000000000000000000000000000000 c(
b00000000 k(
0s(
b00000000 {(
b00000000000000000000000000000000 %)
#10
1g"
1i#
1q#
13(
#15
03(
#18
b00000100000000000000000001101111 C(
1S(
#20
b00000000000000000000000001000000 S
1/"
17"
b001 Q#
b00000100000000000000000001101111 a#
b0000010 y#
b000010 K$
b0000100000 k$
13(
1K(
#25
03(
#28
#30
13
1C
b00000000000000000000000000000000 S
b00000000000000000000000000000100 U!
0/"
07"
b010 Q#
b00000000000000000000000001000000 {$
13(
0K(
#35
03(
#38
#40
03
b00000000000000000000000001000000 [
b00000000000000000000000001000000 -!
15!
1=!
b00000000000000000000000001000000 ]!
b00000000000000000000000001000000 e!
b00000000000000000000000001000000 m!
b00000000000000000000000001000000 }!
1W"
0g"
1o"
1w"
b00000000000000000000000001000000 !#
b011 Q#
b00000000000000000000000000000000 {$
13(
#45
03(
#48
#50
0C
b00000000000000000000000000000000 [
05!
0=!
b00000000000000000000000000000000 U!
b00000000000000000000000000000000 ]!
b00000000000000000000000000000000 e!
b00000000000000000000000000000000 m!
b00000000000000000000000000000000 }!
0W"
1g"
0o"
0w"
b00000000000000000000000000000000 !#
b00000000000000000000000001000100 )#
b00000000000000000000000001000000 1#
b000 Q#
13(
b00000000000000000000000001000000 [(
#55
03(
#58
b10101010101010101010000010110111 C(
#60
b01010 #
b10101010101010101010000000000000 S
b10101 '"
1/"
17"
b001 Q#
b10101010101010101010000010110111 a#
b1010101 y#
b00001 #$
b010 3$
1;$
1C$
b010101 K$
b10101010 [$
b0101010101 k$
13(
1K(
#65
03(
#68
#70
b00000 #
b00000000000000000000000000000000 S
b00000 '"
0/"
07"
b010 Q#
b10101010101010101010000000000000 {$
13(
0K(
#75
03(
#78
#80
b00001 +
13
b11111111111110101010001010101010 [
b11111111111110101010001011101010 -!
b10101010101010101010000000000000 U!
b10101010101010101010000000000000 ]!
b10101010101010101010000000000000 e!
b10101010101010101010000000000000 m!
b10101010101010101010000000000000 }!
1W"
0g"
1o"
b10101010101010101010000000000000 !#
b011 Q#
b00000000000000000000000000000000 {$
13(
#85
03(
#88
#90
b00000 +
03
b00000000000000000000000000000000 [
b00000000000000000000000001000100 -!
b00000000000000000000000000000000 U!
b00000000000000000000000000000000 ]!
b00000000000000000000000000000000 e!
b00000000000000000000000000000000 m!
b00000000000000000000000000000000 }!
0W"
1g"
0o"
b00000000000000000000000000000000 !#
b00000000000000000000000001001000 )#
b00000000000000000000000001000100 1#
b000 Q#
b10101010101010101010000000000000 -%
13(
b00000000000000000000000001000100 [(
#95
03(
#98
b10101010101000001000000010010011 C(
#100
b01010 #
b11111111111111111111101010101010 S
b10101010101010101010000000000000 u!
b10101010101010101010000000000000 }!
b00001 '"
1/"
17"
b001 Q#
b10101010101000001000000010010011 a#
b000 3$
b00001000 [$
13(
1K(
#105
03(
#108
#110
b00000 #
b00000000000000000000000000000000 S
b00000000000000000000000000000000 u!
b00000000000000000000000000000000 }!
b00000 '"
0/"
07"
b010 Q#
b10101010101010101010000000000000 s$
b11111111111111111111101010101010 {$
13(
0K(
#115
03(
#118
#120
b00001 +
13
b11111111111100001000001010101010 [
b11111111111100001000001011101110 -!
15!
1=!
b10101010101010101001101010101010 U!
b10101010101010101001101010101010 ]!
b10101010101010101001101010101010 e!
b10101010101010101001101010101010 m!
b10101010101010101001101010101010 }!
1W"
0g"
1o"
1w"
b10101010101010101001101010101010 !#
b011 Q#
b00000000000000000000000000000000 s$
b00000000000000000000000000000000 {$
13(
#125
03(
#128
#130
b00000 +
03
b00000000000000000000000000000000 [
b00000000000000000000000001001000 -!
05!
0=!
b00000000000000000000000000000000 U!
b00000000000000000000000000000000 ]!
b00000000000000000000000000000000 e!
b00000000000000000000000000000000 m!
b00000000000000000000000000000000 }!
0W"
1g"
0o"
0w"
b00000000000000000000000000000000 !#
b00000000000000000000000001001100 )#
b00000000000000000000000001001000 1#
b000 Q#
b10101010101010101001101010101010 -%
13(
b00000000000000000000000001001000 [(
#135
03(
#138
b01010101010101010101000100110111 C(
#140
b10101 #
b01010101010101010101000000000000 S
b01010 '"
1/"
17"
b001 Q#
b01010101010101010101000100110111 a#
b0101010 y#
b00010 #$
1+$
b101 3$
0;$
0C$
b101010 K$
b0001 S$
b01010101 [$
1c$
b1010101010 k$
13(
1K(
#145
03(
#148
#150
b00000 #
b00000000000000000000000000000000 S
b00000 '"
0/"
07"
b010 Q#
b01010101010101010101000000000000 {$
13(
0K(
#155
03(
#158
#160
b00010 +
13
b00000000000001010101110101010100 [
b00000000000001010101110110011100 -!
15!
1=!
b01010101010101010101000000000000 U!
b01010101010101010101000000000000 ]!
b01010101010101010101000000000000 e!
b01010101010101010101000000000000 m!
b01010101010101010101000000000000 }!
1W"
0g"
1o"
1w"
b01010101010101010101000000000000 !#
b011 Q#
b00000000000000000000000000000000 {$
13(
#165
03(
#168
#170
b00000 +
03
b00000000000000000000000000000000 [
b00000000000000000000000001001100 -!
05!
0=!
b00000000000000000000000000000000 U!
b00000000000000000000000000000000 ]!
b00000000000000000000000000000000 e!
b00000000000000000000000000000000 m!
b00000000000000000000000000000000 }!
0W"
1g"
0o"
0w"
b00000000000000000000000000000000 !#
b00000000000000000000000001010000 )#
b00000000000000000000000001001100 1#
b000 Q#
b01010101010101010101000000000000 5%
13(
b00000000000000000000000001001100 [(
#175
03(
#178
b01010101010100010000000100010011 C(
#180
b10101 #
b00000000000000000000010101010101 S
b01010101010101010101000000000000 u!
b01010101010101010101000000000000 }!
b00010 '"
1/"
17"
b001 Q#
b01010101010100010000000100010011 a#
0+$
b000 3$
b00010000 [$
13(
1K(
#185
03(
#188
#190
b00000 #
b00000000000000000000000000000000 S
b00000000000000000000000000000000 u!
b00000000000000000000000000000000 }!
b00000 '"
0/"
07"
b010 Q#
b01010101010101010101000000000000 s$
b00000000000000000000010101010101 {$
13(
0K(
#195
03(
#198
#200
b00010 +
13
b00000000000000010000110101010100 [
b00000000000000010000110110100000 -!
b01010101010101010101010101010101 U!
b01010101010101010101010101010101 ]!
b01010101010101010101010101010101 e!
b01010101010101010101010101010101 m!
b01010101010101010101010101010101 }!
1W"
0g"
b01010101010101010101010101010101 !#
b011 Q#
b00000000000000000000000000000000 s$
b00000000000000000000000000000000 {$
13(
#205
03(
#208
#210
b00000 +
03
b00000000000000000000000000000000 [
b00000000000000000000000001010000 -!
b00000000000000000000000000000000 U!
b00000000000000000000000000000000 ]!
b00000000000000000000000000000000 e!
b00000000000000000000000000000000 m!
b00000000000000000000000000000000 }!
0W"
1g"
b00000000000000000000000000000000 !#
b00000000000000000000000001010100 )#
b00000000000000000000000001010000 1#
b000 Q#
b01010101010101010101010101010101 5%
13(
b00000000000000000000000001010000 [(
#215
03(
#218
b00000000001000001111000110110011 C(
#220
b00010 #
b00000000000000000000000000000010 S
b01010101010101010101010101010101 %!
b01010101010101010101010101010101 M!
b01010101010101010101010101010101 e!
b01010101010101010101010101010101 m!
b10101010101010101001101010101010 u!
b10101010101010101001101010101010 }!
b00001 '"
1/"
b001 Q#
b00000000001000001111000110110011 a#
b0000000 y#
b00011 #$
b111 3$
1C$
b000000 K$
b00001111 [$
0c$
b0000000001 k$
13(
1K(
#225
03(
#228
#230
b00000 #
b0111 ;
b00000000000000000000000000000000 S
b00000000000000000000000000000000 %!
b00000000000000000000000000000000 M!
b00000000000000000000000000000000 e!
b00000000000000000000000000000000 m!
b00000000000000000000000000000000 u!
b00000000000000000000000000000000 }!
b00000 '"
0/"
b010 Q#
b10101010101010101001101010101010 s$
b01010101010101010101010101010101 {$
13(
0K(
#235
03(
#238
#240
b00011 +
13
b0000 ;
b00000000000000001111000000000010 [
b00000000000000001111000001010010 -!
15!
1=!
b00000000000000000001000000000000 U!
b00000000000000000001000000000000 ]!
b00000000000000000001000000000000 e!
b00000000000000000001000000000000 m!
b00000000000000000001000000000000 }!
1W"
0g"
1w"
b00000000000000000001000000000000 !#
b011 Q#
b00000000000000000000000000000000 s$
b00000000000000000000000000000000 {$
13(
#245
03(
#248
#250
b00000 +
03
b00000000000000000000000000000000 [
b00000000000000000000000001010100 -!
05!
0=!
b00000000000000000000000000000000 U!
b00000000000000000000000000000000 ]!
b00000000000000000000000000000000 e!
b00000000000000000000000000000000 m!
b00000000000000000000000000000000 }!
0W"
1g"
0w"
b00000000000000000000000000000000 !#
b00000000000000000000000001011000 )#
b00000000000000000000000001010100 1#
b000 Q#
b00000000000000000001000000000000 =%
13(
b00000000000000000000000001010100 [(
#255
03(
#258
b00000000001000001111000000110011 C(
#260
b00010 #
b00000000000000000000000000000010 S
b01010101010101010101010101010101 %!
b01010101010101010101010101010101 M!
b01010101010101010101010101010101 e!
b01010101010101010101010101010101 m!
b10101010101010101001101010101010 u!
b10101010101010101001101010101010 }!
b00001 '"
1/"
b001 Q#
b00000000001000001111000000110011 a#
b00000 #$
0C$
b0000 S$
13(
1K(
#265
03(
#268
#270
b00000 #
b0111 ;
b00000000000000000000000000000000 S
b00000000000000000000000000000000 %!
b00000000000000000000000000000000 M!
b00000000000000000000000000000000 e!
b00000000000000000000000000000000 m!
b00000000000000000000000000000000 u!
b00000000000000000000000000000000 }!
b00000 '"
0/"
b010 Q#
b10101010101010101001101010101010 s$
b01010101010101010101010101010101 {$
13(
0K(
#275
03(
#278
#280
13
b0000 ;
b00000000000000001111000000000010 [
b00000000000000001111000001010110 -!
15!
1=!
b00000000000000000001000000000000 U!
b00000000000000000001000000000000 ]!
b00000000000000000001000000000000 e!
b00000000000000000001000000000000 m!
b00000000000000000001000000000000 }!
1W"
0g"
1w"
b00000000000000000001000000000000 !#
b011 Q#
b00000000000000000000000000000000 s$
b00000000000000000000000000000000 {$
13(
#285
03(
#288
#290
03
b00000000000000000000000000000000 [
b00000000000000000000000001011000 -!
05!
0=!
b00000000000000000000000000000000 U!
b00000000000000000000000000000000 ]!
b00000000000000000000000000000000 e!
b00000000000000000000000000000000 m!
b00000000000000000000000000000000 }!
0W"
1g"
0w"
b00000000000000000000000000000000 !#
b00000000000000000000000001011100 )#
b00000000000000000000000001011000 1#
b000 Q#
13(
b00000000000000000000000001011000 [(
#295
03(
#298
b00000000001000001110001000110011 C(
#300
b00010 #
b00000000000000000000000000000010 S
b01010101010101010101010101010101 %!
b01010101010101010101010101010101 M!
b01010101010101010101010101010101 e!
b01010101010101010101010101010101 m!
b10101010101010101001101010101010 u!
b10101010101010101001101010101010 }!
b00001 '"
1/"
b001 Q#
b00000000001000001110001000110011 a#
b00100 #$
b110 3$
b0010 S$
b00001110 [$
13(
1K(
#305
03(
#308
#310
b00000 #
b0110 ;
b00000000000000000000000000000000 S
b00000000000000000000000000000000 %!
b00000000000000000000000000000000 M!
b00000000000000000000000000000000 e!
b00000000000000000000000000000000 m!
b00000000000000000000000000000000 u!
b00000000000000000000000000000000 }!
b00000 '"
0/"
b010 Q#
b10101010101010101001101010101010 s$
b01010101010101010101010101010101 {$
13(
0K(
#315
03(
#318
#320
b00100 +
13
b0000 ;
b00000000000000001110000000000010 [
b00000000000000001110000001011010 -!
15!
1=!
b11111111111111111101111111111111 U!
b11111111111111111101111111111111 ]!
b11111111111111111101111111111111 e!
b11111111111111111101111111111111 m!
b11111111111111111101111111111111 }!
1W"
0g"
1w"
b11111111111111111101111111111111 !#
b011 Q#
b00000000000000000000000000000000 s$
b00000000000000000000000000000000 {$
13(
#325
03(
#328
#330
b00000 +
03
b00000000000000000000000000000000 [
b00000000000000000000000001011100 -!
05!
0=!
b00000000000000000000000000000000 U!
b00000000000000000000000000000000 ]!
b00000000000000000000000000000000 e!
b00000000000000000000000000000000 m!
b00000000000000000000000000000000 }!
0W"
1g"
0w"
b00000000000000000000000000000000 !#
b00000000000000000000000001100000 )#
b00000000000000000000000001011100 1#
b000 Q#
b11111111111111111101111111111111 E%
13(
b00000000000000000000000001011100 [(
#335
03(
#338
b00000000001000001110000000110011 C(
#340
b00010 #
b00000000000000000000000000000010 S
b01010101010101010101010101010101 %!
b01010101010101010101010101010101 M!
b01010101010101010101010101010101 e!
b01010101010101010101010101010101 m!
b10101010101010101001101010101010 u!
b10101010101010101001101010101010 }!
b00001 '"
1/"
b001 Q#
b00000000001000001110000000110011 a#
b00000 #$
b0000 S$
13(
1K(
#345
03(
#348
#350
b00000 #
b0110 ;
b00000000000000000000000000000000 S
b00000000000000000000000000000000 %!
b00000000000000000000000000000000 M!
b00000000000000000000000000000000 e!
b00000000000000000000000000000000 m!
b00000000000000000000000000000000 u!
b00000000000000000000000000000000 }!
b00000 '"
0/"
b010 Q#
b10101010101010101001101010101010 s$
b01010101010101010101010101010101 {$
13(
0K(
#355
03(
#358
#360
13
b0000 ;
b00000000000000001110000000000010 [
b00000000000000001110000001011110 -!
15!
1=!
b11111111111111111101111111111111 U!
b11111111111111111101111111111111 ]!
b11111111111111111101111111111111 e!
b11111111111111111101111111111111 m!
b11111111111111111101111111111111 }!
1W"
0g"
1w"
b11111111111111111101111111111111 !#
b011 Q#
b00000000000000000000000000000000 s$
b00000000000000000000000000000000 {$
13(
#365
03(
#368
#370
03
b00000000000000000000000000000000 [
b00000000000000000000000001100000 -!
05!
0=!
b00000000000000000000000000000000 U!
b00000000000000000000000000000000 ]!
b00000000000000000000000000000000 e!
b00000000000000000000000000000000 m!
b00000000000000000000000000000000 }!
0W"
1g"
0w"
b00000000000000000000000000000000 !#
b00000000000000000000000001100100 )#
b00000000000000000000000001100000 1#
b000 Q#
13(
b00000000000000000000000001100000 [(
#375
03(
#378
b00000000000100000000001010010011 C(
#380
b00001 #
b00000000000000000000000000000001 S
b10101010101010101001101010101010 %!
b10101010101010101001101010101010 M!
b10101010101010101001101010101010 e!
b10101010101010101001101010101010 m!
1/"
17"
b001 Q#
b00000000000100000000001010010011 a#
b00101 #$
b000 3$
1C$
b0010 S$
b00000000 [$
1c$
b0000000000 k$
13(
1K(
#385
03(
#388
#390
b00000 #
b00000000000000000000000000000000 S
b00000000000000000000000000000000 %!
b00000000000000000000000000000000 M!
b00000000000000000000000000000000 e!
b00000000000000000000000000000000 m!
0/"
07"
b010 Q#
b00000000000000000000000000000001 {$
13(
0K(
#395
03(
#398
#400
b00101 +
13
b00000000000000000000100000000000 [
b00000000000000000000100001100000 -!
15!
1=!
b00000000000000000000000000000001 U!
b00000000000000000000000000000001 ]!
b00000000000000000000000000000001 e!
b00000000000000000000000000000001 m!
b00000000000000000000000000000001 }!
1W"
0g"
1o"
1w"
b00000000000000000000000000000001 !#
b011 Q#
b00000000000000000000000000000000 {$
13(
#405
03(
#408
#410
b00000 +
03
b00000000000000000000000000000000 [
b00000000000000000000000001100100 -!
05!
0=!
b00000000000000000000000000000000 U!
b00000000000000000000000000000000 ]!
b00000000000000000000000000000000 e!
b00000000000000000000000000000000 m!
b00000000000000000000000000000000 }!
0W"
1g"
0o"
0w"
b00000000000000000000000000000000 !#
b00000000000000000000000001101000 )#
b00000000000000000000000001100100 1#
b000 Q#
b00000000000000000000000000000001 M%
13(
b00000000000000000000000001100100 [(
#415
03(
#418
b01000000010100001101001100110011 C(
