CPU/core_robintrace.vcd
$version Generated by VerilatedVcd $end
$date Tue Nov  9 22:54:19 2021
 $end
$timescale   1ns $end

 $scope module TOP $end
  $var wire  1 }) clock $end
  $var wire 32 /* io_INSTRUCTION [31:0] $end
  $var wire  1 ?* io_INSTRUCTION_LOADED $end
  $var wire 32 G* io_PC [31:0] $end
  $var wire  1 7* io_RECIEVED $end
  $var wire  1 w* io_mem_read $end
  $var wire  1 _* io_mem_write $end
  $var wire 32 o* io_mem_write_address [31:0] $end
  $var wire  8 g* io_mem_write_data [7:0] $end
  $var wire 32 O* io_rdAddr [31:0] $end
  $var wire  8 W* io_rdData [7:0] $end
  $var wire  1 '* reset $end
  $scope module core_robin $end
   $var wire 32 Y# PC [31:0] $end
   $var wire  1 U! branchCheck $end
   $var wire 32 E! branchImmBranchAddr [31:0] $end
   $var wire  1 }) clock $end
   $var wire  1 ]! conditionalBranching $end
   $var wire  1 }) controlStore_clock $end
   $var wire  4 ; controlStore_io_ALU_OP [3:0] $end
   $var wire  1 5! controlStore_io_BRANCH_ADDRESS_SOURCE_ALU $end
   $var wire  1 o" controlStore_io_BRANCH_CONDITION $end
   $var wire 32 [ controlStore_io_BRANCH_IMMEDIATE [31:0] $end
   $var wire  2 -! controlStore_io_BRANCH_SELECT [1:0] $end
   $var wire  1 O" controlStore_io_CHOOSE_IMMEDIATE $end
   $var wire  1 K controlStore_io_CHOOSE_MEMORY_LOAD $end
   $var wire  1 !# controlStore_io_CHOOSE_PC $end
   $var wire  1 c controlStore_io_DATA_IN $end
   $var wire  1 g" controlStore_io_EXTENSION $end
   $var wire 32 S controlStore_io_IMMEDIATE [31:0] $end
   $var wire 32 /* controlStore_io_INSTRUCTION [31:0] $end
   $var wire  1 ?* controlStore_io_INSTRUCTION_LOADED $end
   $var wire  1 %! controlStore_io_LOAD_ADDRESS_IN $end
   $var wire  1 s controlStore_io_LOAD_READY $end
   $var wire  2 { controlStore_io_LOAD_SIZE [1:0] $end
   $var wire  1 C controlStore_io_PROCEDURE_BRANCHING $end
   $var wire  5 + controlStore_io_RD [4:0] $end
   $var wire  1 G" controlStore_io_RECIEVED $end
   $var wire  5 ?" controlStore_io_RS1 [4:0] $end
   $var wire  5 # controlStore_io_RS2 [4:0] $end
   $var wire  1 k controlStore_io_STORE_ADDRESS_IN $end
   $var wire  1 W" controlStore_io_STORE_READY $end
   $var wire  2 _" controlStore_io_STORE_SIZE [1:0] $end
   $var wire  1 w" controlStore_io_UPDATE_PC $end
   $var wire  1 3 controlStore_io_WRITE_EN $end
   $var wire  1 '* controlStore_reset $end
   $var wire  1 }) dataPath_clock $end
   $var wire  4 ; dataPath_io_ALU_OP [3:0] $end
   $var wire  1 O" dataPath_io_CHOOSE_IMMEDIATE $end
   $var wire  1 K dataPath_io_CHOOSE_MEMORY_LOAD $end
   $var wire  1 !# dataPath_io_CHOOSE_PC $end
   $var wire  1 )# dataPath_io_EQUAL $end
   $var wire 32 S dataPath_io_IMMEDIATE [31:0] $end
   $var wire  1 1# dataPath_io_LESS_THAN $end
   $var wire 32 Y# dataPath_io_PC [31:0] $end
   $var wire  1 C dataPath_io_PROCEDURE_BRANCHING $end
   $var wire  5 + dataPath_io_RD [4:0] $end
   $var wire  5 ?" dataPath_io_RS1 [4:0] $end
   $var wire  5 # dataPath_io_RS2 [4:0] $end
   $var wire  1 9# dataPath_io_SIGNED_LESS_THAN $end
   $var wire  1 3 dataPath_io_WRITE_EN $end
   $var wire 32 A# dataPath_io_instruction_next_address [31:0] $end
   $var wire 32 Q# dataPath_io_instruction_return_address [31:0] $end
   $var wire 32 A# dataPath_io_load_address [31:0] $end
   $var wire 32 I# dataPath_io_load_data [31:0] $end
   $var wire 32 A# dataPath_io_store_address [31:0] $end
   $var wire 32 =! dataPath_io_store_data [31:0] $end
   $var wire  1 '* dataPath_reset $end
   $var wire 32 /* io_INSTRUCTION [31:0] $end
   $var wire  1 ?* io_INSTRUCTION_LOADED $end
   $var wire 32 G* io_PC [31:0] $end
   $var wire  1 7* io_RECIEVED $end
   $var wire  1 w* io_mem_read $end
   $var wire  1 _* io_mem_write $end
   $var wire 32 o* io_mem_write_address [31:0] $end
   $var wire  8 g* io_mem_write_data [7:0] $end
   $var wire 32 O* io_rdAddr [31:0] $end
   $var wire  8 W* io_rdData [7:0] $end
   $var wire  1 M! lessThanGreaterThanALUResult $end
   $var wire  1 }) loadUnit_clock $end
   $var wire  1 g" loadUnit_io_EXTENSION $end
   $var wire  1 %! loadUnit_io_LOAD_ADDRESS_IN $end
   $var wire  1 s loadUnit_io_LOAD_READY $end
   $var wire  2 { loadUnit_io_LOAD_SIZE [1:0] $end
   $var wire  8 W* loadUnit_io_load_data [7:0] $end
   $var wire 32 I# loadUnit_io_load_data_out [31:0] $end
   $var wire 32 A# loadUnit_io_load_mem_address_in [31:0] $end
   $var wire 32 #$ loadUnit_io_load_mem_address_out [31:0] $end
   $var wire  1 y# loadUnit_io_mem_read $end
   $var wire  1 '* loadUnit_reset $end
   $var wire 32 Q# noBranchNextAddr [31:0] $end
   $var wire  1 '* reset $end
   $var wire  1 }) storeUnit_clock $end
   $var wire  1 k storeUnit_io_ADDRESS_IN $end
   $var wire  1 c storeUnit_io_DATA_IN $end
   $var wire  1 W" storeUnit_io_STORE_READY $end
   $var wire  2 _" storeUnit_io_STORE_SIZE [1:0] $end
   $var wire  1 q# storeUnit_io_mem_write $end
   $var wire 32 i# storeUnit_io_mem_write_address [31:0] $end
   $var wire  8 a# storeUnit_io_mem_write_data [7:0] $end
   $var wire 32 A# storeUnit_io_store_address [31:0] $end
   $var wire 32 =! storeUnit_io_store_data [31:0] $end
   $var wire  1 '* storeUnit_reset $end
   $scope module controlStore $end
    $var wire  1 K$ LOAD_READY $end
    $var wire  1 G" RECIEVED $end
    $var wire  1 C$ STORE_READY $end
    $var wire  1 }) clock $end
    $var wire  7 S$ hi [6:0] $end
    $var wire  1 c$ hi_1 $end
    $var wire  1 s$ hi_3 $end
    $var wire  6 %% hi_5 [5:0] $end
    $var wire  1 =% hi_9 $end
    $var wire 32 ;$ instruction [31:0] $end
    $var wire  4 ; io_ALU_OP [3:0] $end
    $var wire  1 5! io_BRANCH_ADDRESS_SOURCE_ALU $end
    $var wire  1 o" io_BRANCH_CONDITION $end
    $var wire 32 [ io_BRANCH_IMMEDIATE [31:0] $end
    $var wire  2 -! io_BRANCH_SELECT [1:0] $end
    $var wire  1 O" io_CHOOSE_IMMEDIATE $end
    $var wire  1 K io_CHOOSE_MEMORY_LOAD $end
    $var wire  1 !# io_CHOOSE_PC $end
    $var wire  1 c io_DATA_IN $end
    $var wire  1 g" io_EXTENSION $end
    $var wire 32 S io_IMMEDIATE [31:0] $end
    $var wire 32 /* io_INSTRUCTION [31:0] $end
    $var wire  1 ?* io_INSTRUCTION_LOADED $end
    $var wire  1 %! io_LOAD_ADDRESS_IN $end
    $var wire  1 s io_LOAD_READY $end
    $var wire  2 { io_LOAD_SIZE [1:0] $end
    $var wire  1 C io_PROCEDURE_BRANCHING $end
    $var wire  5 + io_RD [4:0] $end
    $var wire  1 G" io_RECIEVED $end
    $var wire  5 ?" io_RS1 [4:0] $end
    $var wire  5 # io_RS2 [4:0] $end
    $var wire  1 k io_STORE_ADDRESS_IN $end
    $var wire  1 W" io_STORE_READY $end
    $var wire  2 _" io_STORE_SIZE [1:0] $end
    $var wire  1 w" io_UPDATE_PC $end
    $var wire  1 3 io_WRITE_EN $end
    $var wire  5 [$ lo [4:0] $end
    $var wire  3 k$ lo_1 [2:0] $end
    $var wire  1 {$ lo_3 $end
    $var wire  4 -% lo_4 [3:0] $end
    $var wire  8 5% lo_6 [7:0] $end
    $var wire 10 E% lo_7 [9:0] $end
    $var wire  1 '* reset $end
    $var wire  3 3$ stallState [2:0] $end
    $var wire  3 +$ stateReg [2:0] $end
   $upscope $end
   $scope module dataPath $end
    $var wire 32 M% ALU_in1 [31:0] $end
    $var wire 32 U% ALU_in2 [31:0] $end
    $var wire  1 }) clock $end
    $var wire  1 }) cpuALU_clock $end
    $var wire  4 ; cpuALU_io_ALU_OP [3:0] $end
    $var wire 32 M% cpuALU_io_ALUinput1 [31:0] $end
    $var wire 32 U% cpuALU_io_ALUinput2 [31:0] $end
    $var wire 32 A# cpuALU_io_ALUoutput [31:0] $end
    $var wire  1 )# cpuALU_io_EQUAL $end
    $var wire  1 1# cpuALU_io_LESS_THAN $end
    $var wire  1 9# cpuALU_io_SIGNED_LESS_THAN $end
    $var wire  1 '* cpuALU_reset $end
    $var wire  4 ; io_ALU_OP [3:0] $end
    $var wire  1 O" io_CHOOSE_IMMEDIATE $end
    $var wire  1 K io_CHOOSE_MEMORY_LOAD $end
    $var wire  1 !# io_CHOOSE_PC $end
    $var wire  1 )# io_EQUAL $end
    $var wire 32 S io_IMMEDIATE [31:0] $end
    $var wire  1 1# io_LESS_THAN $end
    $var wire 32 Y# io_PC [31:0] $end
    $var wire  1 C io_PROCEDURE_BRANCHING $end
    $var wire  5 + io_RD [4:0] $end
    $var wire  5 ?" io_RS1 [4:0] $end
    $var wire  5 # io_RS2 [4:0] $end
    $var wire  1 9# io_SIGNED_LESS_THAN $end
    $var wire  1 3 io_WRITE_EN $end
    $var wire 32 A# io_instruction_next_address [31:0] $end
    $var wire 32 Q# io_instruction_return_address [31:0] $end
    $var wire 32 A# io_load_address [31:0] $end
    $var wire 32 I# io_load_data [31:0] $end
    $var wire 32 A# io_store_address [31:0] $end
    $var wire 32 =! io_store_data [31:0] $end
    $var wire 32 u! rdData [31:0] $end
    $var wire  1 }) registerFile_clock $end
    $var wire  5 + registerFile_io_RD [4:0] $end
    $var wire  5 ?" registerFile_io_RS1 [4:0] $end
    $var wire  5 # registerFile_io_RS2 [4:0] $end
    $var wire  1 3 registerFile_io_WRITE_EN $end
    $var wire 32 m! registerFile_io_rdData [31:0] $end
    $var wire 32 /" registerFile_io_rs1Data [31:0] $end
    $var wire 32 e! registerFile_io_rs2Data [31:0] $end
    $var wire  1 '* reset $end
    $var wire 32 7" rs1_ALU [31:0] $end
    $var wire 32 }! rs2_ALU [31:0] $end
    $var wire 32 '" rs2_ALU_rd [31:0] $end
    $scope module cpuALU $end
     $var wire 32 A# ALUoutput [31:0] $end
     $var wire  1 )# EQUAL $end
     $var wire  1 1# LESS_THAN $end
     $var wire  1 9# SIGNED_LESS_THAN $end
     $var wire  1 }) clock $end
     $var wire  4 ; io_ALU_OP [3:0] $end
     $var wire 32 M% io_ALUinput1 [31:0] $end
     $var wire 32 U% io_ALUinput2 [31:0] $end
     $var wire 32 A# io_ALUoutput [31:0] $end
     $var wire  1 )# io_EQUAL $end
     $var wire  1 1# io_LESS_THAN $end
     $var wire  1 9# io_SIGNED_LESS_THAN $end
     $var wire  1 '* reset $end
    $upscope $end
    $scope module registerFile $end
     $var wire  1 }) clock $end
     $var wire  5 + io_RD [4:0] $end
     $var wire  5 ?" io_RS1 [4:0] $end
     $var wire  5 # io_RS2 [4:0] $end
     $var wire  1 3 io_WRITE_EN $end
     $var wire 32 m! io_rdData [31:0] $end
     $var wire 32 /" io_rs1Data [31:0] $end
     $var wire 32 e! io_rs2Data [31:0] $end
     $var wire 32 ]% registerFile_0 [31:0] $end
     $var wire 32 e% registerFile_1 [31:0] $end
     $var wire 32 O& registerFile_10 [31:0] $end
     $var wire 32 W& registerFile_11 [31:0] $end
     $var wire 32 _& registerFile_12 [31:0] $end
     $var wire 32 g& registerFile_13 [31:0] $end
     $var wire 32 o& registerFile_14 [31:0] $end
     $var wire 32 w& registerFile_15 [31:0] $end
     $var wire 32 !' registerFile_16 [31:0] $end
     $var wire 32 )' registerFile_17 [31:0] $end
     $var wire 32 1' registerFile_18 [31:0] $end
     $var wire 32 9' registerFile_19 [31:0] $end
     $var wire 32 m% registerFile_2 [31:0] $end
     $var wire 32 A' registerFile_20 [31:0] $end
     $var wire 32 I' registerFile_21 [31:0] $end
     $var wire 32 Q' registerFile_22 [31:0] $end
     $var wire 32 Y' registerFile_23 [31:0] $end
     $var wire 32 a' registerFile_24 [31:0] $end
     $var wire 32 i' registerFile_25 [31:0] $end
     $var wire 32 q' registerFile_26 [31:0] $end
     $var wire 32 y' registerFile_27 [31:0] $end
     $var wire 32 #( registerFile_28 [31:0] $end
     $var wire 32 +( registerFile_29 [31:0] $end
     $var wire 32 u% registerFile_3 [31:0] $end
     $var wire 32 3( registerFile_30 [31:0] $end
     $var wire 32 ;( registerFile_31 [31:0] $end
     $var wire 32 }% registerFile_4 [31:0] $end
     $var wire 32 '& registerFile_5 [31:0] $end
     $var wire 32 /& registerFile_6 [31:0] $end
     $var wire 32 7& registerFile_7 [31:0] $end
     $var wire 32 ?& registerFile_8 [31:0] $end
     $var wire 32 G& registerFile_9 [31:0] $end
    $upscope $end
   $upscope $end
   $scope module loadUnit $end
    $var wire  1 -) EXTENSION $end
    $var wire  2 %) LOAD_SIZE [1:0] $end
    $var wire  1 5) MSB $end
    $var wire  1 }) clock $end
    $var wire 24 ]) extending_mask [23:0] $end
    $var wire 16 E) hi [15:0] $end
    $var wire 24 e) hi_1 [23:0] $end
    $var wire 24 u) hi_2 [23:0] $end
    $var wire  1 g" io_EXTENSION $end
    $var wire  1 %! io_LOAD_ADDRESS_IN $end
    $var wire  1 s io_LOAD_READY $end
    $var wire  2 { io_LOAD_SIZE [1:0] $end
    $var wire  8 W* io_load_data [7:0] $end
    $var wire 32 I# io_load_data_out [31:0] $end
    $var wire 32 A# io_load_mem_address_in [31:0] $end
    $var wire 32 #$ io_load_mem_address_out [31:0] $end
    $var wire  1 y# io_mem_read $end
    $var wire  8 M) lo [7:0] $end
    $var wire  8 m) lo_1 [7:0] $end
    $var wire 32 {( load_data_address_buffer [31:0] $end
    $var wire 32 k( load_data_buffer [31:0] $end
    $var wire  2 s( load_data_size_buffer [1:0] $end
    $var wire 24 U) mask [23:0] $end
    $var wire  1 =) needMask $end
    $var wire  1 '* reset $end
    $var wire  1 y# stateReg $end
   $upscope $end
   $scope module storeUnit $end
    $var wire  1 }) clock $end
    $var wire  1 k io_ADDRESS_IN $end
    $var wire  1 c io_DATA_IN $end
    $var wire  1 W" io_STORE_READY $end
    $var wire  2 _" io_STORE_SIZE [1:0] $end
    $var wire  1 q# io_mem_write $end
    $var wire 32 i# io_mem_write_address [31:0] $end
    $var wire  8 a# io_mem_write_data [7:0] $end
    $var wire 32 A# io_store_address [31:0] $end
    $var wire 32 =! io_store_data [31:0] $end
    $var wire 24 c( lo [23:0] $end
    $var wire  1 '* reset $end
    $var wire  1 [( stateReg $end
    $var wire 32 C( store_data_buffer [31:0] $end
    $var wire 32 S( store_data_buffer_address [31:0] $end
    $var wire  2 K( store_data_size_buffer [1:0] $end
    $var wire  1 q# storing $end
   $upscope $end
  $upscope $end
 $upscope $end
$enddefinitions $end


#8
b00000 #
b00000 +
03
b0000 ;
0C
0K
b00000000000000000000000000000000 S
b00000000000000000000000000000000 [
0c
0k
1s
b00 {
0%!
b01 -!
05!
b00000000000000000000000000000000 =!
b00000000000000000000000000000000 E!
0M!
0U!
0]!
b00000000000000000000000000000000 e!
b00000000000000000000000000000000 m!
b00000000000000000000000000000000 u!
b00000000000000000000000000000000 }!
b00000000000000000000000000000000 '"
b00000000000000000000000000000000 /"
b00000000000000000000000000000000 7"
b00000 ?"
0G"
0O"
1W"
b01 _"
0g"
0o"
0w"
0!#
0)#
01#
09#
b00000000000000000000000000000000 A#
b00000000000000000000000000000000 I#
b00000000000000000000000000000100 Q#
b00000000000000000000000000000000 Y#
b00000000 a#
b00000000000000000000000000000000 i#
0q#
0y#
b00000000000000000000000000000000 #$
b000 +$
b000 3$
b00000000000000000000000000000000 ;$
0C$
0K$
b0000000 S$
b00000 [$
0c$
b000 k$
0s$
0{$
b000000 %%
b0000 -%
b00000000 5%
0=%
b0000000000 E%
b00000000000000000000000000000000 M%
b00000000000000000000000000000000 U%
b00000000000000000000000000000000 ]%
b00000000000000000000000000000000 e%
b00000000000000000000000000000000 m%
b00000000000000000000000000000000 u%
b00000000000000000000000000000000 }%
b00000000000000000000000000000000 '&
b00000000000000000000000000000000 /&
b00000000000000000000000000000000 7&
b00000000000000000000000000000000 ?&
b00000000000000000000000000000000 G&
b00000000000000000000000000000000 O&
b00000000000000000000000000000000 W&
b00000000000000000000000000000000 _&
b00000000000000000000000000000000 g&
b00000000000000000000000000000000 o&
b00000000000000000000000000000000 w&
b00000000000000000000000000000000 !'
b00000000000000000000000000000000 )'
b00000000000000000000000000000000 1'
b00000000000000000000000000000000 9'
b00000000000000000000000000000000 A'
b00000000000000000000000000000000 I'
b00000000000000000000000000000000 Q'
b00000000000000000000000000000000 Y'
b00000000000000000000000000000000 a'
b00000000000000000000000000000000 i'
b00000000000000000000000000000000 q'
b00000000000000000000000000000000 y'
b00000000000000000000000000000000 #(
b00000000000000000000000000000000 +(
b00000000000000000000000000000000 3(
b00000000000000000000000000000000 ;(
b00000000000000000000000000000000 C(
b00 K(
b00000000000000000000000000000000 S(
0[(
b000000000000000000000000 c(
b00000000000000000000000000000000 k(
b00 s(
b00000000000000000000000000000000 {(
b00 %)
0-)
05)
0=)
b0000000000000000 E)
b00000000 M)
b000000000000000000000000 U)
b000000000000000000000000 ])
b000000000000000000000000 e)
b00000000 m)
b000000000000000000000000 u)
0})
0'*
b00000000000000000000000000000000 /*
07*
0?*
b00000000000000000000000000000000 G*
b00000000000000000000000000000000 O*
b00000000 W*
0_*
b00000000 g*
b00000000000000000000000000000000 o*
0w*
#10
1)#
1C$
1K$
1})
#15
0})
#18
b00000100000000000000000001101111 /*
1?*
#20
b00000000000000000000000001000000 S
1G"
1O"
b001 +$
b00000100000000000000000001101111 ;$
b0000010 S$
b000010 %%
b0000100000 E%
1})
17*
#25
0})
#28
#30
13
1C
b00000000000000000000000000000000 S
b00000000000000000000000000000100 m!
0G"
0O"
b010 +$
b00000000000000000000000001000000 U%
1})
07*
#35
0})
#38
#40
03
b00000000000000000000000001000000 [
b11 {
b00000000000000000000000001000000 E!
1M!
1U!
b00000000000000000000000001000000 u!
b00000000000000000000000001000000 }!
b00000000000000000000000001000000 '"
b00000000000000000000000001000000 7"
1g"
1w"
0)#
11#
19#
b00000000000000000000000001000000 A#
b011 +$
b00000000000000000000000000000000 U%
1})
#45
0})
#48
#50
0C
b00000000000000000000000000000000 [
b00 {
0M!
0U!
b00000000000000000000000000000000 m!
b00000000000000000000000000000000 u!
b00000000000000000000000000000000 }!
b00000000000000000000000000000000 '"
b00000000000000000000000000000000 7"
0g"
0w"
1)#
01#
09#
b00000000000000000000000000000000 A#
b00000000000000000000000001000100 Q#
b00000000000000000000000001000000 Y#
b000 +$
1})
b00000000000000000000000001000000 G*
#55
0})
#58
b10101010101010101011000010110111 /*
#60
b01010 #
b10101010101010101011000000000000 S
b10101 ?"
1G"
1O"
b001 +$
b10101010101010101011000010110111 ;$
b1010101 S$
b00001 [$
b011 k$
1s$
1{$
b010101 %%
b10101011 5%
b0101010101 E%
1})
17*
#65
0})
#68
#70
b00000 #
b00000000000000000000000000000000 S
b00000 ?"
0G"
0O"
b010 +$
b10101010101010101011000000000000 U%
1})
07*
#75
0})
#78
#80
b00001 +
13
b11111111111110101011001010101010 [
b11111111111110101011001011101010 E!
b10101010101010101011000000000000 m!
b10101010101010101011000000000000 u!
b10101010101010101011000000000000 }!
b10101010101010101011000000000000 '"
b10101010101010101011000000000000 7"
1g"
1w"
0)#
11#
b10101010101010101011000000000000 A#
b011 +$
b00000000000000000000000000000000 U%
1})
#85
0})
#88
#90
b00000 +
03
b00000000000000000000000000000000 [
b00000000000000000000000001000100 E!
b00000000000000000000000000000000 m!
b00000000000000000000000000000000 u!
b00000000000000000000000000000000 }!
b00000000000000000000000000000000 '"
b00000000000000000000000000000000 7"
0g"
0w"
1)#
01#
b00000000000000000000000000000000 A#
b00000000000000000000000001001000 Q#
b00000000000000000000000001000100 Y#
b000 +$
b10101010101010101011000000000000 e%
1})
b00000000000000000000000001000100 G*
#95
0})
#98
b10101010101000001000000010010011 /*
#100
b01010 #
b11111111111111111111101010101010 S
b10101010101010101011000000000000 /"
b10101010101010101011000000000000 7"
b00001 ?"
1G"
1O"
b001 +$
b10101010101000001000000010010011 ;$
b000 k$
b00001000 5%
1})
17*
#105
0})
#108
#110
b00000 #
b00000000000000000000000000000000 S
b00000000000000000000000000000000 /"
b00000000000000000000000000000000 7"
b00000 ?"
0G"
0O"
b010 +$
b10101010101010101011000000000000 M%
b11111111111111111111101010101010 U%
1})
07*
#115
0})
#118
#120
b00001 +
13
b11111111111100001000001010101010 [
b11 {
b11111111111100001000001011101110 E!
1M!
1U!
b10101010101010101010101010101010 m!
b10101010101010101010101010101010 u!
b10101010101010101010101010101010 }!
b10101010101010101010101010101010 '"
b10101010101010101010101010101010 7"
1g"
1w"
0)#
11#
19#
b10101010101010101010101010101010 A#
b011 +$
b00000000000000000000000000000000 M%
b00000000000000000000000000000000 U%
1})
#125
0})
#128
#130
b00000 +
03
b00000000000000000000000000000000 [
b00 {
b00000000000000000000000001001000 E!
0M!
0U!
b00000000000000000000000000000000 m!
b00000000000000000000000000000000 u!
b00000000000000000000000000000000 }!
b00000000000000000000000000000000 '"
b00000000000000000000000000000000 7"
0g"
0w"
1)#
01#
09#
b00000000000000000000000000000000 A#
b00000000000000000000000001001100 Q#
b00000000000000000000000001001000 Y#
b000 +$
b10101010101010101010101010101010 e%
1})
b00000000000000000000000001001000 G*
#135
0})
#138
b01010101010101010101000100110111 /*
#140
b10101 #
b01010101010101010101000000000000 S
b01010 ?"
1G"
1O"
b001 +$
b01010101010101010101000100110111 ;$
b0101010 S$
b00010 [$
1c$
b101 k$
0s$
0{$
b101010 %%
b0001 -%
b01010101 5%
1=%
b1010101010 E%
1})
17*
#145
0})
#148
#150
b00000 #
b00000000000000000000000000000000 S
b00000 ?"
0G"
0O"
b010 +$
b01010101010101010101000000000000 U%
1})
07*
#155
0})
#158
#160
b00010 +
13
b00000000000001010101110101010100 [
b10 {
b00000000000001010101110110011100 E!
1M!
1U!
b01010101010101010101000000000000 m!
b01010101010101010101000000000000 u!
b01010101010101010101000000000000 }!
b01010101010101010101000000000000 '"
b01010101010101010101000000000000 7"
1w"
0)#
11#
19#
b01010101010101010101000000000000 A#
b011 +$
b00000000000000000000000000000000 U%
1})
#165
0})
#168
#170
b00000 +
03
b00000000000000000000000000000000 [
b00 {
b00000000000000000000000001001100 E!
0M!
0U!
b00000000000000000000000000000000 m!
b00000000000000000000000000000000 u!
b00000000000000000000000000000000 }!
b00000000000000000000000000000000 '"
b00000000000000000000000000000000 7"
0w"
1)#
01#
09#
b00000000000000000000000000000000 A#
b00000000000000000000000001010000 Q#
b00000000000000000000000001001100 Y#
b000 +$
b01010101010101010101000000000000 m%
1})
b00000000000000000000000001001100 G*
#175
0})
#178
b01010101010100010000000100010011 /*
#180
b10101 #
b00000000000000000000010101010101 S
b01010101010101010101000000000000 /"
b01010101010101010101000000000000 7"
b00010 ?"
1G"
1O"
b001 +$
b01010101010100010000000100010011 ;$
0c$
b000 k$
b00010000 5%
1})
17*
#185
0})
#188
#190
b00000 #
b00000000000000000000000000000000 S
b00000000000000000000000000000000 /"
b00000000000000000000000000000000 7"
b00000 ?"
0G"
0O"
b010 +$
b01010101010101010101000000000000 M%
b00000000000000000000010101010101 U%
1})
07*
#195
0})
#198
#200
b00010 +
13
b00000000000000010000110101010100 [
b11 {
b00000000000000010000110110100000 E!
b01010101010101010101010101010101 m!
b01010101010101010101010101010101 u!
b01010101010101010101010101010101 }!
b01010101010101010101010101010101 '"
b01010101010101010101010101010101 7"
1g"
1w"
0)#
b01010101010101010101010101010101 A#
b011 +$
b00000000000000000000000000000000 M%
b00000000000000000000000000000000 U%
1})
#205
0})
#208
#210
b00000 +
03
b00000000000000000000000000000000 [
b00 {
b00000000000000000000000001010000 E!
b00000000000000000000000000000000 m!
b00000000000000000000000000000000 u!
b00000000000000000000000000000000 }!
b00000000000000000000000000000000 '"
b00000000000000000000000000000000 7"
0g"
0w"
1)#
b00000000000000000000000000000000 A#
b00000000000000000000000001010100 Q#
b00000000000000000000000001010000 Y#
b000 +$
b01010101010101010101010101010101 m%
1})
b00000000000000000000000001010000 G*
#215
0})
#218
b00000000001000001111000110110011 /*
#220
b00010 #
b00000000000000000000000000000010 S
b01010101010101010101010101010101 =!
b01010101010101010101010101010101 e!
b01010101010101010101010101010101 }!
b01010101010101010101010101010101 '"
b10101010101010101010101010101010 /"
b10101010101010101010101010101010 7"
b00001 ?"
1G"
b001 +$
b00000000001000001111000110110011 ;$
b0000000 S$
b00011 [$
b111 k$
1{$
b000000 %%
b00001111 5%
0=%
b0000000001 E%
1})
17*
#225
0})
#228
#230
b00000 #
b0111 ;
b00000000000000000000000000000000 S
b00000000000000000000000000000000 =!
b00000000000000000000000000000000 e!
b00000000000000000000000000000000 }!
b00000000000000000000000000000000 '"
b00000000000000000000000000000000 /"
b00000000000000000000000000000000 7"
b00000 ?"
0G"
b010 +$
b10101010101010101010101010101010 M%
b01010101010101010101010101010101 U%
1})
07*
#235
0})
#238
#240
b00011 +
13
b0000 ;
b00000000000000001111000000000010 [
b00000000000000001111000001010010 E!
1M!
1U!
1w"
0)#
19#
b011 +$
b00000000000000000000000000000000 M%
b00000000000000000000000000000000 U%
1})
#245
0})
#248
#250
b00000 +
03
b00000000000000000000000000000000 [
b00000000000000000000000001010100 E!
0M!
0U!
0w"
1)#
09#
b00000000000000000000000001011000 Q#
b00000000000000000000000001010100 Y#
b000 +$
1})
b00000000000000000000000001010100 G*
#255
0})
#258
b00000000001000001111000000110011 /*
#260
b00010 #
b00000000000000000000000000000010 S
b01010101010101010101010101010101 =!
b01010101010101010101010101010101 e!
b01010101010101010101010101010101 }!
b01010101010101010101010101010101 '"
b10101010101010101010101010101010 /"
b10101010101010101010101010101010 7"
b00001 ?"
1G"
b001 +$
b00000000001000001111000000110011 ;$
b00000 [$
0{$
b0000 -%
1})
17*
#265
0})
#268
#270
b00000 #
b0111 ;
b00000000000000000000000000000000 S
b00000000000000000000000000000000 =!
b00000000000000000000000000000000 e!
b00000000000000000000000000000000 }!
b00000000000000000000000000000000 '"
b00000000000000000000000000000000 /"
b00000000000000000000000000000000 7"
b00000 ?"
0G"
b010 +$
b10101010101010101010101010101010 M%
b01010101010101010101010101010101 U%
1})
07*
#275
0})
#278
#280
13
b0000 ;
b00000000000000001111000000000010 [
b00000000000000001111000001010110 E!
1M!
1U!
1w"
0)#
19#
b011 +$
b00000000000000000000000000000000 M%
b00000000000000000000000000000000 U%
1})
#285
0})
#288
#290
03
b00000000000000000000000000000000 [
b00000000000000000000000001011000 E!
0M!
0U!
0w"
1)#
09#
b00000000000000000000000001011100 Q#
b00000000000000000000000001011000 Y#
b000 +$
1})
b00000000000000000000000001011000 G*
#295
0})
#298
b00000000001000001110001000110011 /*
#300
b00010 #
b00000000000000000000000000000010 S
b01010101010101010101010101010101 =!
b01010101010101010101010101010101 e!
b01010101010101010101010101010101 }!
b01010101010101010101010101010101 '"
b10101010101010101010101010101010 /"
b10101010101010101010101010101010 7"
b00001 ?"
1G"
b001 +$
b00000000001000001110001000110011 ;$
b00100 [$
b110 k$
b0010 -%
b00001110 5%
1})
17*
#305
0})
#308
#310
b00000 #
b0110 ;
b00000000000000000000000000000000 S
b00000000000000000000000000000000 =!
b00000000000000000000000000000000 e!
b00000000000000000000000000000000 }!
b00000000000000000000000000000000 '"
b00000000000000000000000000000000 /"
b00000000000000000000000000000000 7"
b00000 ?"
0G"
b010 +$
b10101010101010101010101010101010 M%
b01010101010101010101010101010101 U%
1})
07*
#315
0})
#318
#320
b00100 +
13
b0000 ;
b00000000000000001110000000000010 [
b11 {
b00000000000000001110000001011010 E!
1M!
1U!
b11111111111111111111111111111111 m!
b11111111111111111111111111111111 u!
b11111111111111111111111111111111 }!
b11111111111111111111111111111111 '"
b11111111111111111111111111111111 7"
1w"
0)#
19#
b11111111111111111111111111111111 A#
b011 +$
b00000000000000000000000000000000 M%
b00000000000000000000000000000000 U%
1})
#325
0})
#328
#330
b00000 +
03
b00000000000000000000000000000000 [
b00 {
b00000000000000000000000001011100 E!
0M!
0U!
b00000000000000000000000000000000 m!
b00000000000000000000000000000000 u!
b00000000000000000000000000000000 }!
b00000000000000000000000000000000 '"
b00000000000000000000000000000000 7"
0w"
1)#
09#
b00000000000000000000000000000000 A#
b00000000000000000000000001100000 Q#
b00000000000000000000000001011100 Y#
b000 +$
b11111111111111111111111111111111 }%
1})
b00000000000000000000000001011100 G*
#335
0})
#338
b00000000001000001110000000110011 /*
#340
b00010 #
b00000000000000000000000000000010 S
b01010101010101010101010101010101 =!
b01010101010101010101010101010101 e!
b01010101010101010101010101010101 }!
b01010101010101010101010101010101 '"
b10101010101010101010101010101010 /"
b10101010101010101010101010101010 7"
b00001 ?"
1G"
b001 +$
b00000000001000001110000000110011 ;$
b00000 [$
b0000 -%
1})
17*
#345
0})
#348
#350
b00000 #
b0110 ;
b00000000000000000000000000000000 S
b00000000000000000000000000000000 =!
b00000000000000000000000000000000 e!
b00000000000000000000000000000000 }!
b00000000000000000000000000000000 '"
b00000000000000000000000000000000 /"
b00000000000000000000000000000000 7"
b00000 ?"
0G"
b010 +$
b10101010101010101010101010101010 M%
b01010101010101010101010101010101 U%
1})
07*
#355
0})
#358
