CPU/core_robintrace.vcd
$version Generated by VerilatedVcd $end
$date Thu Oct 28 21:27:41 2021
 $end
$timescale   1ns $end

 $scope module TOP $end
  $var wire  1 3( clock $end
  $var wire 32 C( io_INSTRUCTION [31:0] $end
  $var wire  1 S( io_INSTRUCTION_LOADED $end
  $var wire 32 [( io_PC [31:0] $end
  $var wire  1 K( io_RECIEVED $end
  $var wire  1 s( io_mem_write $end
  $var wire 32 %) io_mem_write_address [31:0] $end
  $var wire  8 {( io_mem_write_data [7:0] $end
  $var wire 32 c( io_rdAddr [31:0] $end
  $var wire  8 k( io_rdData [7:0] $end
  $var wire  1 ;( reset $end
  $scope module core_robin $end
   $var wire 32 1# PC [31:0] $end
   $var wire  1 5! branchCheck $end
   $var wire 32 %! branchImmBranchAddr [31:0] $end
   $var wire  1 3( clock $end
   $var wire  1 =! conditionalBranching $end
   $var wire  1 3( controlStore_clock $end
   $var wire  4 ; controlStore_io_ALU_OP [3:0] $end
   $var wire  1 O" controlStore_io_BRANCH_ADDRESS_SOURCE_ALU $end
   $var wire  1 G" controlStore_io_BRANCH_CONDITION $end
   $var wire 32 [ controlStore_io_BRANCH_IMMEDIATE [31:0] $end
   $var wire  2 s controlStore_io_BRANCH_SELECT [1:0] $end
   $var wire  1 /" controlStore_io_CHOOSE_IMMEDIATE $end
   $var wire  1 K controlStore_io_CHOOSE_MEMORY_LOAD $end
   $var wire  1 _" controlStore_io_CHOOSE_PC $end
   $var wire  1 c controlStore_io_DATA_IN $end
   $var wire 32 S controlStore_io_IMMEDIATE [31:0] $end
   $var wire 32 C( controlStore_io_INSTRUCTION [31:0] $end
   $var wire  1 S( controlStore_io_INSTRUCTION_LOADED $end
   $var wire  1 C controlStore_io_PROCEDURE_BRANCHING $end
   $var wire  5 + controlStore_io_RD [4:0] $end
   $var wire  1 '" controlStore_io_RECIEVED $end
   $var wire  5 }! controlStore_io_RS1 [4:0] $end
   $var wire  5 # controlStore_io_RS2 [4:0] $end
   $var wire  1 k controlStore_io_STORE_ADDRESS_IN $end
   $var wire  1 7" controlStore_io_STORE_READY $end
   $var wire  2 ?" controlStore_io_STORE_SIZE [1:0] $end
   $var wire  1 W" controlStore_io_UPDATE_PC $end
   $var wire  1 3 controlStore_io_WRITE_EN $end
   $var wire  1 ;( controlStore_reset $end
   $var wire  1 3( dataPath_clock $end
   $var wire  4 ; dataPath_io_ALU_OP [3:0] $end
   $var wire  1 /" dataPath_io_CHOOSE_IMMEDIATE $end
   $var wire  1 K dataPath_io_CHOOSE_MEMORY_LOAD $end
   $var wire  1 _" dataPath_io_CHOOSE_PC $end
   $var wire  1 g" dataPath_io_EQUAL $end
   $var wire 32 S dataPath_io_IMMEDIATE [31:0] $end
   $var wire  1 o" dataPath_io_LESS_THAN $end
   $var wire 32 1# dataPath_io_PC [31:0] $end
   $var wire  1 C dataPath_io_PROCEDURE_BRANCHING $end
   $var wire  5 + dataPath_io_RD [4:0] $end
   $var wire  5 }! dataPath_io_RS1 [4:0] $end
   $var wire  5 # dataPath_io_RS2 [4:0] $end
   $var wire  1 w" dataPath_io_SIGNED_LESS_THAN $end
   $var wire  1 3 dataPath_io_WRITE_EN $end
   $var wire 32 !# dataPath_io_instruction_next_address [31:0] $end
   $var wire 32 )# dataPath_io_instruction_return_address [31:0] $end
   $var wire 32 !# dataPath_io_store_address [31:0] $end
   $var wire 32 { dataPath_io_store_data [31:0] $end
   $var wire  1 ;( dataPath_reset $end
   $var wire 32 C( io_INSTRUCTION [31:0] $end
   $var wire  1 S( io_INSTRUCTION_LOADED $end
   $var wire 32 [( io_PC [31:0] $end
   $var wire  1 K( io_RECIEVED $end
   $var wire  1 s( io_mem_write $end
   $var wire 32 %) io_mem_write_address [31:0] $end
   $var wire  8 {( io_mem_write_data [7:0] $end
   $var wire 32 c( io_rdAddr [31:0] $end
   $var wire  8 k( io_rdData [7:0] $end
   $var wire  1 -! lessThanGreaterThanALUResult $end
   $var wire 32 )# noBranchNextAddr [31:0] $end
   $var wire  1 ;( reset $end
   $var wire  1 3( storeUnit_clock $end
   $var wire  1 k storeUnit_io_ADDRESS_IN $end
   $var wire  1 c storeUnit_io_DATA_IN $end
   $var wire  1 7" storeUnit_io_STORE_READY $end
   $var wire  2 ?" storeUnit_io_STORE_SIZE [1:0] $end
   $var wire  1 I# storeUnit_io_mem_write $end
   $var wire 32 A# storeUnit_io_mem_write_address [31:0] $end
   $var wire  8 9# storeUnit_io_mem_write_data [7:0] $end
   $var wire 32 !# storeUnit_io_store_address [31:0] $end
   $var wire 32 { storeUnit_io_store_data [31:0] $end
   $var wire  1 ;( storeUnit_reset $end
   $scope module controlStore $end
    $var wire  1 q# LOAD_READY $end
    $var wire  1 '" RECIEVED $end
    $var wire  1 i# STORE_READY $end
    $var wire  1 3( clock $end
    $var wire  7 y# hi [6:0] $end
    $var wire  1 +$ hi_1 $end
    $var wire  1 ;$ hi_3 $end
    $var wire  6 K$ hi_5 [5:0] $end
    $var wire  1 c$ hi_9 $end
    $var wire 32 a# instruction [31:0] $end
    $var wire  4 ; io_ALU_OP [3:0] $end
    $var wire  1 O" io_BRANCH_ADDRESS_SOURCE_ALU $end
    $var wire  1 G" io_BRANCH_CONDITION $end
    $var wire 32 [ io_BRANCH_IMMEDIATE [31:0] $end
    $var wire  2 s io_BRANCH_SELECT [1:0] $end
    $var wire  1 /" io_CHOOSE_IMMEDIATE $end
    $var wire  1 K io_CHOOSE_MEMORY_LOAD $end
    $var wire  1 _" io_CHOOSE_PC $end
    $var wire  1 c io_DATA_IN $end
    $var wire 32 S io_IMMEDIATE [31:0] $end
    $var wire 32 C( io_INSTRUCTION [31:0] $end
    $var wire  1 S( io_INSTRUCTION_LOADED $end
    $var wire  1 C io_PROCEDURE_BRANCHING $end
    $var wire  5 + io_RD [4:0] $end
    $var wire  1 '" io_RECIEVED $end
    $var wire  5 }! io_RS1 [4:0] $end
    $var wire  5 # io_RS2 [4:0] $end
    $var wire  1 k io_STORE_ADDRESS_IN $end
    $var wire  1 7" io_STORE_READY $end
    $var wire  2 ?" io_STORE_SIZE [1:0] $end
    $var wire  1 W" io_UPDATE_PC $end
    $var wire  1 3 io_WRITE_EN $end
    $var wire  5 #$ lo [4:0] $end
    $var wire  3 3$ lo_1 [2:0] $end
    $var wire  1 C$ lo_3 $end
    $var wire  4 S$ lo_4 [3:0] $end
    $var wire  8 [$ lo_6 [7:0] $end
    $var wire 10 k$ lo_7 [9:0] $end
    $var wire  1 ;( reset $end
    $var wire  3 Y# stallState [2:0] $end
    $var wire  3 Q# stateReg [2:0] $end
   $upscope $end
   $scope module dataPath $end
    $var wire 32 s$ ALU_in1 [31:0] $end
    $var wire 32 {$ ALU_in2 [31:0] $end
    $var wire  1 3( clock $end
    $var wire  1 3( cpuALU_clock $end
    $var wire  4 ; cpuALU_io_ALU_OP [3:0] $end
    $var wire 32 s$ cpuALU_io_ALUinput1 [31:0] $end
    $var wire 32 {$ cpuALU_io_ALUinput2 [31:0] $end
    $var wire 32 !# cpuALU_io_ALUoutput [31:0] $end
    $var wire  1 g" cpuALU_io_EQUAL $end
    $var wire  1 o" cpuALU_io_LESS_THAN $end
    $var wire  1 w" cpuALU_io_SIGNED_LESS_THAN $end
    $var wire  1 ;( cpuALU_reset $end
    $var wire  4 ; io_ALU_OP [3:0] $end
    $var wire  1 /" io_CHOOSE_IMMEDIATE $end
    $var wire  1 K io_CHOOSE_MEMORY_LOAD $end
    $var wire  1 _" io_CHOOSE_PC $end
    $var wire  1 g" io_EQUAL $end
    $var wire 32 S io_IMMEDIATE [31:0] $end
    $var wire  1 o" io_LESS_THAN $end
    $var wire 32 1# io_PC [31:0] $end
    $var wire  1 C io_PROCEDURE_BRANCHING $end
    $var wire  5 + io_RD [4:0] $end
    $var wire  5 }! io_RS1 [4:0] $end
    $var wire  5 # io_RS2 [4:0] $end
    $var wire  1 w" io_SIGNED_LESS_THAN $end
    $var wire  1 3 io_WRITE_EN $end
    $var wire 32 !# io_instruction_next_address [31:0] $end
    $var wire 32 )# io_instruction_return_address [31:0] $end
    $var wire 32 !# io_store_address [31:0] $end
    $var wire 32 { io_store_data [31:0] $end
    $var wire 32 U! rdData [31:0] $end
    $var wire  1 3( registerFile_clock $end
    $var wire  5 + registerFile_io_RD [4:0] $end
    $var wire  5 }! registerFile_io_RS1 [4:0] $end
    $var wire  5 # registerFile_io_RS2 [4:0] $end
    $var wire  1 3 registerFile_io_WRITE_EN $end
    $var wire 32 M! registerFile_io_rdData [31:0] $end
    $var wire 32 m! registerFile_io_rs1Data [31:0] $end
    $var wire 32 E! registerFile_io_rs2Data [31:0] $end
    $var wire  1 ;( reset $end
    $var wire 32 u! rs1_ALU [31:0] $end
    $var wire 32 ]! rs2_ALU [31:0] $end
    $var wire 32 e! rs2_ALU_rd [31:0] $end
    $scope module cpuALU $end
     $var wire 32 !# ALUoutput [31:0] $end
     $var wire  1 g" EQUAL $end
     $var wire  1 o" LESS_THAN $end
     $var wire  1 w" SIGNED_LESS_THAN $end
     $var wire  1 3( clock $end
     $var wire  4 ; io_ALU_OP [3:0] $end
     $var wire 32 s$ io_ALUinput1 [31:0] $end
     $var wire 32 {$ io_ALUinput2 [31:0] $end
     $var wire 32 !# io_ALUoutput [31:0] $end
     $var wire  1 g" io_EQUAL $end
     $var wire  1 o" io_LESS_THAN $end
     $var wire  1 w" io_SIGNED_LESS_THAN $end
     $var wire  1 ;( reset $end
    $upscope $end
    $scope module registerFile $end
     $var wire  1 3( clock $end
     $var wire  5 + io_RD [4:0] $end
     $var wire  5 }! io_RS1 [4:0] $end
     $var wire  5 # io_RS2 [4:0] $end
     $var wire  1 3 io_WRITE_EN $end
     $var wire 32 M! io_rdData [31:0] $end
     $var wire 32 m! io_rs1Data [31:0] $end
     $var wire 32 E! io_rs2Data [31:0] $end
     $var wire 32 %% registerFile_0 [31:0] $end
     $var wire 32 -% registerFile_1 [31:0] $end
     $var wire 32 u% registerFile_10 [31:0] $end
     $var wire 32 }% registerFile_11 [31:0] $end
     $var wire 32 '& registerFile_12 [31:0] $end
     $var wire 32 /& registerFile_13 [31:0] $end
     $var wire 32 7& registerFile_14 [31:0] $end
     $var wire 32 ?& registerFile_15 [31:0] $end
     $var wire 32 G& registerFile_16 [31:0] $end
     $var wire 32 O& registerFile_17 [31:0] $end
     $var wire 32 W& registerFile_18 [31:0] $end
     $var wire 32 _& registerFile_19 [31:0] $end
     $var wire 32 5% registerFile_2 [31:0] $end
     $var wire 32 g& registerFile_20 [31:0] $end
     $var wire 32 o& registerFile_21 [31:0] $end
     $var wire 32 w& registerFile_22 [31:0] $end
     $var wire 32 !' registerFile_23 [31:0] $end
     $var wire 32 )' registerFile_24 [31:0] $end
     $var wire 32 1' registerFile_25 [31:0] $end
     $var wire 32 9' registerFile_26 [31:0] $end
     $var wire 32 A' registerFile_27 [31:0] $end
     $var wire 32 I' registerFile_28 [31:0] $end
     $var wire 32 Q' registerFile_29 [31:0] $end
     $var wire 32 =% registerFile_3 [31:0] $end
     $var wire 32 Y' registerFile_30 [31:0] $end
     $var wire 32 a' registerFile_31 [31:0] $end
     $var wire 32 E% registerFile_4 [31:0] $end
     $var wire 32 M% registerFile_5 [31:0] $end
     $var wire 32 U% registerFile_6 [31:0] $end
     $var wire 32 ]% registerFile_7 [31:0] $end
     $var wire 32 e% registerFile_8 [31:0] $end
     $var wire 32 m% registerFile_9 [31:0] $end
    $upscope $end
   $upscope $end
   $scope module storeUnit $end
    $var wire  1 3( clock $end
    $var wire  1 k io_ADDRESS_IN $end
    $var wire  1 c io_DATA_IN $end
    $var wire  1 7" io_STORE_READY $end
    $var wire  2 ?" io_STORE_SIZE [1:0] $end
    $var wire  1 I# io_mem_write $end
    $var wire 32 A# io_mem_write_address [31:0] $end
    $var wire  8 9# io_mem_write_data [7:0] $end
    $var wire 32 !# io_store_address [31:0] $end
    $var wire 32 { io_store_data [31:0] $end
    $var wire 24 +( lo [23:0] $end
    $var wire  1 ;( reset $end
    $var wire  1 #( stateReg $end
    $var wire 32 i' store_data_buffer [31:0] $end
    $var wire 32 y' store_data_buffer_address [31:0] $end
    $var wire  2 q' store_data_size_buffer [1:0] $end
    $var wire  1 I# storing $end
   $upscope $end
  $upscope $end
 $upscope $end
$enddefinitions $end


#8
b00000 #
b00000 +
03
b0000 ;
0C
0K
b00000000000000000000000000000000 S
b00000000000000000000000000000000 [
0c
0k
b01 s
b00000000000000000000000000000000 {
b00000000000000000000000000000000 %!
0-!
05!
0=!
b00000000000000000000000000000000 E!
b00000000000000000000000000000000 M!
b00000000000000000000000000000000 U!
b00000000000000000000000000000000 ]!
b00000000000000000000000000000000 e!
b00000000000000000000000000000000 m!
b00000000000000000000000000000000 u!
b00000 }!
0'"
0/"
17"
b01 ?"
0G"
0O"
0W"
0_"
0g"
0o"
0w"
b00000000000000000000000000000000 !#
b00000000000000000000000000000100 )#
b00000000000000000000000000000000 1#
b00000000 9#
b00000000000000000000000000000000 A#
0I#
b000 Q#
b000 Y#
b00000000000000000000000000000000 a#
0i#
0q#
b0000000 y#
b00000 #$
0+$
b000 3$
0;$
0C$
b000000 K$
b0000 S$
b00000000 [$
0c$
b0000000000 k$
b00000000000000000000000000000000 s$
b00000000000000000000000000000000 {$
b00000000000000000000000000000000 %%
b00000000000000000000000000000000 -%
b00000000000000000000000000000000 5%
b00000000000000000000000000000000 =%
b00000000000000000000000000000000 E%
b00000000000000000000000000000000 M%
b00000000000000000000000000000000 U%
b00000000000000000000000000000000 ]%
b00000000000000000000000000000000 e%
b00000000000000000000000000000000 m%
b00000000000000000000000000000000 u%
b00000000000000000000000000000000 }%
b00000000000000000000000000000000 '&
b00000000000000000000000000000000 /&
b00000000000000000000000000000000 7&
b00000000000000000000000000000000 ?&
b00000000000000000000000000000000 G&
b00000000000000000000000000000000 O&
b00000000000000000000000000000000 W&
b00000000000000000000000000000000 _&
b00000000000000000000000000000000 g&
b00000000000000000000000000000000 o&
b00000000000000000000000000000000 w&
b00000000000000000000000000000000 !'
b00000000000000000000000000000000 )'
b00000000000000000000000000000000 1'
b00000000000000000000000000000000 9'
b00000000000000000000000000000000 A'
b00000000000000000000000000000000 I'
b00000000000000000000000000000000 Q'
b00000000000000000000000000000000 Y'
b00000000000000000000000000000000 a'
b00000000000000000000000000000000 i'
b00 q'
b00000000000000000000000000000000 y'
0#(
b000000000000000000000000 +(
03(
0;(
b00000000100000000000000000010011 C(
0K(
1S(
b00000000000000000000000000000000 [(
b00000000000000000000000000000000 c(
b00000000 k(
0s(
b00000000 {(
b00000000000000000000000000000000 %)
#10
b01000 #
b00000000000000000000000000001000 S
1'"
1/"
1g"
b001 Q#
b00000000100000000000000000010011 a#
1i#
1q#
b0000000100 k$
13(
1K(
#15
03(
#18
0S(
#20
b00000 #
b00000000000000000000000000000000 S
b00000000000000000000000000001000 [
b00000000000000000000000000001000 %!
0'"
0/"
1W"
b010 Q#
b00000000000000000000000000001000 {$
13(
0K(
#25
03(
#28
b00000000100100000000000010010011 C(
1S(
#30
13
b00000000000000000000000000000000 [
b00000000000000000000000000000100 %!
1-!
15!
b00000000000000000000000000001000 M!
b00000000000000000000000000001000 U!
b00000000000000000000000000001000 ]!
b00000000000000000000000000001000 e!
b00000000000000000000000000001000 u!
0W"
0g"
1o"
1w"
b00000000000000000000000000001000 !#
b00000000000000000000000000001000 )#
b00000000000000000000000000000100 1#
b011 Q#
b00000000000000000000000000000000 {$
13(
b00000000000000000000000000000100 [(
#35
03(
#38
#40
03
0-!
05!
b00000000000000000000000000000000 M!
b00000000000000000000000000000000 U!
b00000000000000000000000000000000 ]!
b00000000000000000000000000000000 e!
b00000000000000000000000000000000 u!
1g"
0o"
0w"
b00000000000000000000000000000000 !#
b000 Q#
13(
#45
03(
#48
#50
b01001 #
b00000000000000000000000000001001 S
1'"
1/"
b001 Q#
b00000000100100000000000010010011 a#
b00001 #$
1C$
1c$
13(
1K(
#55
03(
#58
#60
b00000 #
b00000000000000000000000000000000 S
b00000000000000000000100000001000 [
b00000000000000000000100000001100 %!
0'"
0/"
1W"
b010 Q#
b00000000000000000000000000001001 {$
13(
0K(
#65
03(
#68
0S(
#70
b00001 +
13
b00000000000000000000000000000000 [
b00000000000000000000000000001000 %!
1-!
15!
b00000000000000000000000000001001 M!
b00000000000000000000000000001001 U!
b00000000000000000000000000001001 ]!
b00000000000000000000000000001001 e!
b00000000000000000000000000001001 u!
0W"
0g"
1o"
1w"
b00000000000000000000000000001001 !#
b00000000000000000000000000001100 )#
b00000000000000000000000000001000 1#
b011 Q#
b00000000000000000000000000000000 {$
13(
b00000000000000000000000000001000 [(
#75
03(
#78
b00000000101000000000000100010011 C(
1S(
#80
b00000 +
03
0-!
05!
b00000000000000000000000000000000 M!
b00000000000000000000000000000000 U!
b00000000000000000000000000000000 ]!
b00000000000000000000000000000000 e!
b00000000000000000000000000000000 u!
1g"
0o"
0w"
b00000000000000000000000000000000 !#
b000 Q#
b00000000000000000000000000001001 -%
13(
#85
03(
#88
#90
b01010 #
b00000000000000000000000000001010 S
1'"
1/"
b001 Q#
b00000000101000000000000100010011 a#
b00010 #$
0C$
b0001 S$
0c$
b0000000101 k$
13(
1K(
#95
03(
#98
#100
b00000 #
b00000000000000000000000000000000 S
b00000000000000000000000000001010 [
b00000000000000000000000000010010 %!
0'"
0/"
1W"
b010 Q#
b00000000000000000000000000001010 {$
13(
0K(
#105
03(
#108
0S(
#110
b00010 +
13
b00000000000000000000000000000000 [
b00000000000000000000000000001100 %!
1-!
15!
b00000000000000000000000000001010 M!
b00000000000000000000000000001010 U!
b00000000000000000000000000001010 ]!
b00000000000000000000000000001010 e!
b00000000000000000000000000001010 u!
0W"
0g"
1o"
1w"
b00000000000000000000000000001010 !#
b00000000000000000000000000010000 )#
b00000000000000000000000000001100 1#
b011 Q#
b00000000000000000000000000000000 {$
13(
b00000000000000000000000000001100 [(
#115
03(
#118
b00000000101100000000000110010011 C(
1S(
#120
b00000 +
03
0-!
05!
b00000000000000000000000000000000 M!
b00000000000000000000000000000000 U!
b00000000000000000000000000000000 ]!
b00000000000000000000000000000000 e!
b00000000000000000000000000000000 u!
1g"
0o"
0w"
b00000000000000000000000000000000 !#
b000 Q#
b00000000000000000000000000001010 5%
13(
#125
03(
#128
#130
b01011 #
b00000000000000000000000000001011 S
1'"
1/"
b001 Q#
b00000000101100000000000110010011 a#
b00011 #$
1C$
1c$
13(
1K(
#135
03(
#138
#140
b00000 #
b00000000000000000000000000000000 S
b00000000000000000000100000001010 [
b00000000000000000000100000010110 %!
0'"
0/"
1W"
b010 Q#
b00000000000000000000000000001011 {$
13(
0K(
#145
03(
#148
0S(
#150
b00011 +
13
b00000000000000000000000000000000 [
b00000000000000000000000000010000 %!
1-!
15!
b00000000000000000000000000001011 M!
b00000000000000000000000000001011 U!
b00000000000000000000000000001011 ]!
b00000000000000000000000000001011 e!
b00000000000000000000000000001011 u!
0W"
0g"
1o"
1w"
b00000000000000000000000000001011 !#
b00000000000000000000000000010100 )#
b00000000000000000000000000010000 1#
b011 Q#
b00000000000000000000000000000000 {$
13(
b00000000000000000000000000010000 [(
#155
03(
#158
b00000000110000000000001000010011 C(
1S(
#160
b00000 +
03
0-!
05!
b00000000000000000000000000000000 M!
b00000000000000000000000000000000 U!
b00000000000000000000000000000000 ]!
b00000000000000000000000000000000 e!
b00000000000000000000000000000000 u!
1g"
0o"
0w"
b00000000000000000000000000000000 !#
b000 Q#
b00000000000000000000000000001011 =%
13(
#165
03(
#168
#170
b01100 #
b00000000000000000000000000001100 S
1'"
1/"
b001 Q#
b00000000110000000000001000010011 a#
b00100 #$
0C$
b0010 S$
0c$
b0000000110 k$
13(
1K(
#175
03(
#178
#180
b00000 #
b00000000000000000000000000000000 S
b00000000000000000000000000001100 [
b00000000000000000000000000011100 %!
0'"
0/"
1W"
b010 Q#
b00000000000000000000000000001100 {$
13(
0K(
#185
03(
#188
0S(
#190
b00100 +
13
b00000000000000000000000000000000 [
b00000000000000000000000000010100 %!
1-!
15!
b00000000000000000000000000001100 M!
b00000000000000000000000000001100 U!
b00000000000000000000000000001100 ]!
b00000000000000000000000000001100 e!
b00000000000000000000000000001100 u!
0W"
0g"
1o"
1w"
b00000000000000000000000000001100 !#
b00000000000000000000000000011000 )#
b00000000000000000000000000010100 1#
b011 Q#
b00000000000000000000000000000000 {$
13(
b00000000000000000000000000010100 [(
#195
03(
#198
b00000000110100000000001010010011 C(
1S(
#200
b00000 +
03
0-!
05!
b00000000000000000000000000000000 M!
b00000000000000000000000000000000 U!
b00000000000000000000000000000000 ]!
b00000000000000000000000000000000 e!
b00000000000000000000000000000000 u!
1g"
0o"
0w"
b00000000000000000000000000000000 !#
b000 Q#
b00000000000000000000000000001100 E%
13(
#205
03(
#208
#210
b01101 #
b00000000000000000000000000001101 S
1'"
1/"
b001 Q#
b00000000110100000000001010010011 a#
b00101 #$
1C$
1c$
13(
1K(
#215
03(
#218
#220
b00000 #
b00000000000000000000000000000000 S
b00000000000000000000100000001100 [
b00000000000000000000100000100000 %!
0'"
0/"
1W"
b010 Q#
b00000000000000000000000000001101 {$
13(
0K(
#225
03(
#228
0S(
#230
b00101 +
13
b00000000000000000000000000000000 [
b00000000000000000000000000011000 %!
1-!
15!
b00000000000000000000000000001101 M!
b00000000000000000000000000001101 U!
b00000000000000000000000000001101 ]!
b00000000000000000000000000001101 e!
b00000000000000000000000000001101 u!
0W"
0g"
1o"
1w"
b00000000000000000000000000001101 !#
b00000000000000000000000000011100 )#
b00000000000000000000000000011000 1#
b011 Q#
b00000000000000000000000000000000 {$
13(
b00000000000000000000000000011000 [(
#235
03(
#238
b00000000111000000000001100010011 C(
1S(
#240
b00000 +
03
0-!
05!
b00000000000000000000000000000000 M!
b00000000000000000000000000000000 U!
b00000000000000000000000000000000 ]!
b00000000000000000000000000000000 e!
b00000000000000000000000000000000 u!
1g"
0o"
0w"
b00000000000000000000000000000000 !#
b000 Q#
b00000000000000000000000000001101 M%
13(
#245
03(
#248
#250
b01110 #
b00000000000000000000000000001110 S
1'"
1/"
b001 Q#
b00000000111000000000001100010011 a#
b00110 #$
0C$
b0011 S$
0c$
b0000000111 k$
13(
1K(
#255
03(
#258
#260
b00000 #
b00000000000000000000000000000000 S
b00000000000000000000000000001110 [
b00000000000000000000000000100110 %!
0'"
0/"
1W"
b010 Q#
b00000000000000000000000000001110 {$
13(
0K(
#265
03(
#268
0S(
#270
b00110 +
13
b00000000000000000000000000000000 [
b00000000000000000000000000011100 %!
1-!
15!
b00000000000000000000000000001110 M!
b00000000000000000000000000001110 U!
b00000000000000000000000000001110 ]!
b00000000000000000000000000001110 e!
b00000000000000000000000000001110 u!
0W"
0g"
1o"
1w"
b00000000000000000000000000001110 !#
b00000000000000000000000000100000 )#
b00000000000000000000000000011100 1#
b011 Q#
b00000000000000000000000000000000 {$
13(
b00000000000000000000000000011100 [(
