CPU/Memorytrace.vcd
$version Generated by VerilatedVcd $end
$date Wed Nov  3 14:30:01 2021
 $end
$timescale   1ns $end

 $scope module TOP $end
  $var wire  1 C clock $end
  $var wire  1 c io_mem_write $end
  $var wire 32 s io_mem_write_address [31:0] $end
  $var wire  8 k io_mem_write_data [7:0] $end
  $var wire 32 S io_rdAddr [31:0] $end
  $var wire  8 [ io_rdData [7:0] $end
  $var wire  1 K reset $end
  $scope module Memory $end
   $var wire  1 C clock $end
   $var wire  1 ; doForwardReg $end
   $var wire  1 c io_mem_write $end
   $var wire 32 s io_mem_write_address [31:0] $end
   $var wire  8 k io_mem_write_data [7:0] $end
   $var wire 32 S io_rdAddr [31:0] $end
   $var wire  8 [ io_rdData [7:0] $end
   $var wire 10 { mem_MPORT_addr [9:0] $end
   $var wire  8 k mem_MPORT_data [7:0] $end
   $var wire  1 c mem_MPORT_en $end
   $var wire  1 %! mem_MPORT_mask $end
   $var wire 10 + mem_memData_addr [9:0] $end
   $var wire 10 + mem_memData_addr_pipe_0 [9:0] $end
   $var wire  8 # mem_memData_data [7:0] $end
   $var wire  1 K reset $end
   $var wire  8 3 wrDataReg [7:0] $end
  $upscope $end
 $upscope $end
$enddefinitions $end


#8
b00000000 #
b0000000000 +
b00000000 3
0;
0C
0K
b00000000000000000000000000000000 S
b00000000 [
1c
b10001001 k
b00000000000000000000000000010000 s
b0000010000 {
1%!
#10
b10001001 3
1C
#15
0C
#18
b10101011 k
b00000000000000000000000000010001 s
b0000010001 {
#20
b10101011 3
1C
#25
0C
#28
b11001101 k
b00000000000000000000000000010010 s
b0000010010 {
#30
b11001101 3
1C
#35
0C
#38
b11101111 k
b00000000000000000000000000010011 s
b0000010011 {
#40
b11101111 3
1C
#45
0C
#48
0c
#50
1C
#55
0C
#58
#60
1C
#65
0C
#68
#70
1C
#75
0C
#78
#80
1C
#85
0C
#88
#90
1C
#95
0C
#98
#100
1C
#105
0C
#108
b00000000000000000000000000010000 S
#110
b10001001 #
b0000010000 +
1C
b10001001 [
#115
0C
#118
b00000000000000000000000000010001 S
#120
b10101011 #
b0000010001 +
1C
b10101011 [
#125
0C
#128
b00000000000000000000000000010010 S
#130
b11001101 #
b0000010010 +
1C
b11001101 [
#135
0C
#138
b00000000000000000000000000010011 S
#140
b11101111 #
b0000010011 +
1C
b11101111 [
