CPU/test_bench_robin_coretrace.vcd
$version Generated by VerilatedVcd $end
$date Wed Nov 17 11:25:46 2021
 $end
$timescale   1ns $end

 $scope module TOP $end
  $var wire  1 Q+ clock $end
  $var wire 32 [, io_INSTRUCTION [31:0] $end
  $var wire 32 c, io_PC [31:0] $end
  $var wire  1 3, io_START_PROGRAM $end
  $var wire 32 q+ io_mem_write_address_data [31:0] $end
  $var wire 32 +, io_mem_write_address_instruction [31:0] $end
  $var wire  8 i+ io_mem_write_data [7:0] $end
  $var wire 32 #, io_mem_write_instruction [31:0] $end
  $var wire  1 C, io_out_mem_write $end
  $var wire 32 S, io_out_mem_write_address [31:0] $end
  $var wire  8 K, io_out_mem_write_data [7:0] $end
  $var wire  1 ;, io_outputSake $end
  $var wire  1 a+ io_signal_mem_write_data $end
  $var wire  1 y+ io_signal_mem_write_instruction $end
  $var wire  1 Y+ reset $end
  $scope module test_bench_robin_core_v2 $end
   $var wire  1 A# PROGRAM_LOADED $end
   $var wire  1 Q+ clock $end
   $var wire 32 [, io_INSTRUCTION [31:0] $end
   $var wire 32 c, io_PC [31:0] $end
   $var wire  1 3, io_START_PROGRAM $end
   $var wire 32 q+ io_mem_write_address_data [31:0] $end
   $var wire 32 +, io_mem_write_address_instruction [31:0] $end
   $var wire  8 i+ io_mem_write_data [7:0] $end
   $var wire 32 #, io_mem_write_instruction [31:0] $end
   $var wire  1 C, io_out_mem_write $end
   $var wire 32 S, io_out_mem_write_address [31:0] $end
   $var wire  8 K, io_out_mem_write_data [7:0] $end
   $var wire  1 ;, io_outputSake $end
   $var wire  1 a+ io_signal_mem_write_data $end
   $var wire  1 y+ io_signal_mem_write_instruction $end
   $var wire 30 Y# lo [29:0] $end
   $var wire  1 Q+ memoryData_clock $end
   $var wire  1 o" memoryData_io_mem_write $end
   $var wire 32 !# memoryData_io_mem_write_address [31:0] $end
   $var wire  8 w" memoryData_io_mem_write_data [7:0] $end
   $var wire 32 # memoryData_io_rdAddr [31:0] $end
   $var wire  8 1# memoryData_io_rdData [7:0] $end
   $var wire  1 Q+ memoryInstruction_clock $end
   $var wire  1 y+ memoryInstruction_io_mem_write $end
   $var wire 32 +, memoryInstruction_io_mem_write_address [31:0] $end
   $var wire 32 #, memoryInstruction_io_mem_write_data [31:0] $end
   $var wire 32 9# memoryInstruction_io_rdAddr [31:0] $end
   $var wire 32 + memoryInstruction_io_rdData [31:0] $end
   $var wire  1 Y+ reset $end
   $var wire  1 Q+ robinCore_clock $end
   $var wire 32 + robinCore_io_INSTRUCTION [31:0] $end
   $var wire 32 I# robinCore_io_PC [31:0] $end
   $var wire  1 A# robinCore_io_START_PROGRAM $end
   $var wire  1 Q# robinCore_io_mem_write $end
   $var wire 32 ; robinCore_io_mem_write_address [31:0] $end
   $var wire  8 3 robinCore_io_mem_write_data [7:0] $end
   $var wire 32 # robinCore_io_rdAddr [31:0] $end
   $var wire  8 1# robinCore_io_rdData [7:0] $end
   $var wire  1 Y+ robinCore_reset $end
   $scope module memoryData $end
    $var wire  1 Q+ clock $end
    $var wire  1 y# doForwardReg $end
    $var wire  1 o" io_mem_write $end
    $var wire 32 !# io_mem_write_address [31:0] $end
    $var wire  8 w" io_mem_write_data [7:0] $end
    $var wire 32 # io_rdAddr [31:0] $end
    $var wire  8 1# io_rdData [7:0] $end
    $var wire 10 )# mem_MPORT_addr [9:0] $end
    $var wire  8 w" mem_MPORT_data [7:0] $end
    $var wire  1 o" mem_MPORT_en $end
    $var wire  1 s, mem_MPORT_mask $end
    $var wire 10 i# mem_memData_addr [9:0] $end
    $var wire 10 i# mem_memData_addr_pipe_0 [9:0] $end
    $var wire  8 a# mem_memData_data [7:0] $end
    $var wire  8 q# wrDataReg [7:0] $end
   $upscope $end
   $scope module memoryInstruction $end
    $var wire  1 Q+ clock $end
    $var wire  1 ;$ doForwardReg $end
    $var wire  1 y+ io_mem_write $end
    $var wire 32 +, io_mem_write_address [31:0] $end
    $var wire 32 #, io_mem_write_data [31:0] $end
    $var wire 32 9# io_rdAddr [31:0] $end
    $var wire 32 + io_rdData [31:0] $end
    $var wire 10 k, mem_MPORT_addr [9:0] $end
    $var wire 32 #, mem_MPORT_data [31:0] $end
    $var wire  1 y+ mem_MPORT_en $end
    $var wire  1 s, mem_MPORT_mask $end
    $var wire 10 +$ mem_memData_addr [9:0] $end
    $var wire 10 +$ mem_memData_addr_pipe_0 [9:0] $end
    $var wire 32 #$ mem_memData_data [31:0] $end
    $var wire 32 3$ wrDataReg [31:0] $end
   $upscope $end
   $scope module robinCore $end
    $var wire  1 C$ INSTRUCTION_LOADED $end
    $var wire 32 I# PC [31:0] $end
    $var wire  1 M% PROGRAM_LOADED $end
    $var wire  1 '" branchCheck $end
    $var wire 32 u! branchImmBranchAddr [31:0] $end
    $var wire  1 Q+ clock $end
    $var wire  1 /" conditionalBranching $end
    $var wire  1 Q+ controlStore_clock $end
    $var wire  4 c controlStore_io_ALU_OP [3:0] $end
    $var wire  1 ]! controlStore_io_BRANCH_ADDRESS_SOURCE_ALU $end
    $var wire  1 k$ controlStore_io_BRANCH_CONDITION $end
    $var wire 32 %! controlStore_io_BRANCH_IMMEDIATE [31:0] $end
    $var wire  2 U! controlStore_io_BRANCH_SELECT [1:0] $end
    $var wire  1 K$ controlStore_io_CHOOSE_IMMEDIATE $end
    $var wire  1 s controlStore_io_CHOOSE_MEMORY_LOAD $end
    $var wire  1 s$ controlStore_io_CHOOSE_PC $end
    $var wire  1 -! controlStore_io_DATA_IN $end
    $var wire  1 c$ controlStore_io_EXTENSION $end
    $var wire 32 { controlStore_io_IMMEDIATE [31:0] $end
    $var wire 32 + controlStore_io_INSTRUCTION [31:0] $end
    $var wire  1 C$ controlStore_io_INSTRUCTION_LOADED $end
    $var wire  1 M! controlStore_io_LOAD_ADDRESS_IN $end
    $var wire  1 =! controlStore_io_LOAD_READY $end
    $var wire  2 E! controlStore_io_LOAD_SIZE [1:0] $end
    $var wire  1 k controlStore_io_PROCEDURE_BRANCHING $end
    $var wire  5 S controlStore_io_RD [4:0] $end
    $var wire  5 C controlStore_io_RS1 [4:0] $end
    $var wire  5 K controlStore_io_RS2 [4:0] $end
    $var wire  1 5! controlStore_io_STORE_ADDRESS_IN $end
    $var wire  1 S$ controlStore_io_STORE_READY $end
    $var wire  2 [$ controlStore_io_STORE_SIZE [1:0] $end
    $var wire  1 e! controlStore_io_UPDATE_PC $end
    $var wire  1 [ controlStore_io_WRITE_EN $end
    $var wire  1 Y+ controlStore_reset $end
    $var wire  1 Q+ dataPath_clock $end
    $var wire  4 c dataPath_io_ALU_OP [3:0] $end
    $var wire  1 K$ dataPath_io_CHOOSE_IMMEDIATE $end
    $var wire  1 s dataPath_io_CHOOSE_MEMORY_LOAD $end
    $var wire  1 s$ dataPath_io_CHOOSE_PC $end
    $var wire  1 {$ dataPath_io_EQUAL $end
    $var wire 32 { dataPath_io_IMMEDIATE [31:0] $end
    $var wire  1 %% dataPath_io_LESS_THAN $end
    $var wire 32 I# dataPath_io_PC [31:0] $end
    $var wire  1 k dataPath_io_PROCEDURE_BRANCHING $end
    $var wire  5 S dataPath_io_RD [4:0] $end
    $var wire  5 C dataPath_io_RS1 [4:0] $end
    $var wire  5 K dataPath_io_RS2 [4:0] $end
    $var wire  1 -% dataPath_io_SIGNED_LESS_THAN $end
    $var wire  1 [ dataPath_io_WRITE_EN $end
    $var wire 32 5% dataPath_io_instruction_next_address [31:0] $end
    $var wire 32 E% dataPath_io_instruction_return_address [31:0] $end
    $var wire 32 5% dataPath_io_load_address [31:0] $end
    $var wire 32 =% dataPath_io_load_data [31:0] $end
    $var wire 32 5% dataPath_io_store_address [31:0] $end
    $var wire 32 m! dataPath_io_store_data [31:0] $end
    $var wire  1 Y+ dataPath_reset $end
    $var wire 32 + io_INSTRUCTION [31:0] $end
    $var wire 32 I# io_PC [31:0] $end
    $var wire  1 A# io_START_PROGRAM $end
    $var wire  1 Q# io_mem_write $end
    $var wire 32 ; io_mem_write_address [31:0] $end
    $var wire  8 3 io_mem_write_data [7:0] $end
    $var wire 32 # io_rdAddr [31:0] $end
    $var wire  8 1# io_rdData [7:0] $end
    $var wire  1 }! lessThanGreaterThanALUResult $end
    $var wire  1 Q+ loadUnit_clock $end
    $var wire  1 c$ loadUnit_io_EXTENSION $end
    $var wire  1 M! loadUnit_io_LOAD_ADDRESS_IN $end
    $var wire  1 =! loadUnit_io_LOAD_READY $end
    $var wire  2 E! loadUnit_io_LOAD_SIZE [1:0] $end
    $var wire  8 1# loadUnit_io_load_data [7:0] $end
    $var wire 32 =% loadUnit_io_load_data_out [31:0] $end
    $var wire 32 5% loadUnit_io_load_mem_address_in [31:0] $end
    $var wire 32 # loadUnit_io_load_mem_address_out [31:0] $end
    $var wire  1 Y+ loadUnit_reset $end
    $var wire 32 E% noBranchNextAddr [31:0] $end
    $var wire  1 Y+ reset $end
    $var wire  1 Q+ storeUnit_clock $end
    $var wire  1 5! storeUnit_io_ADDRESS_IN $end
    $var wire  1 -! storeUnit_io_DATA_IN $end
    $var wire  1 S$ storeUnit_io_STORE_READY $end
    $var wire  2 [$ storeUnit_io_STORE_SIZE [1:0] $end
    $var wire  1 Q# storeUnit_io_mem_write $end
    $var wire 32 ; storeUnit_io_mem_write_address [31:0] $end
    $var wire  8 3 storeUnit_io_mem_write_data [7:0] $end
    $var wire 32 5% storeUnit_io_store_address [31:0] $end
    $var wire 32 m! storeUnit_io_store_data [31:0] $end
    $var wire  1 Y+ storeUnit_reset $end
    $scope module controlStore $end
     $var wire  1 u% LOAD_READY $end
     $var wire  1 m% STORE_READY $end
     $var wire  1 Q+ clock $end
     $var wire  7 }% hi [6:0] $end
     $var wire  1 /& hi_1 $end
     $var wire  1 ?& hi_3 $end
     $var wire  6 O& hi_5 [5:0] $end
     $var wire  1 g& hi_9 $end
     $var wire 32 e% instruction [31:0] $end
     $var wire  4 c io_ALU_OP [3:0] $end
     $var wire  1 ]! io_BRANCH_ADDRESS_SOURCE_ALU $end
     $var wire  1 k$ io_BRANCH_CONDITION $end
     $var wire 32 %! io_BRANCH_IMMEDIATE [31:0] $end
     $var wire  2 U! io_BRANCH_SELECT [1:0] $end
     $var wire  1 K$ io_CHOOSE_IMMEDIATE $end
     $var wire  1 s io_CHOOSE_MEMORY_LOAD $end
     $var wire  1 s$ io_CHOOSE_PC $end
     $var wire  1 -! io_DATA_IN $end
     $var wire  1 c$ io_EXTENSION $end
     $var wire 32 { io_IMMEDIATE [31:0] $end
     $var wire 32 + io_INSTRUCTION [31:0] $end
     $var wire  1 C$ io_INSTRUCTION_LOADED $end
     $var wire  1 M! io_LOAD_ADDRESS_IN $end
     $var wire  1 =! io_LOAD_READY $end
     $var wire  2 E! io_LOAD_SIZE [1:0] $end
     $var wire  1 k io_PROCEDURE_BRANCHING $end
     $var wire  5 S io_RD [4:0] $end
     $var wire  5 C io_RS1 [4:0] $end
     $var wire  5 K io_RS2 [4:0] $end
     $var wire  1 5! io_STORE_ADDRESS_IN $end
     $var wire  1 S$ io_STORE_READY $end
     $var wire  2 [$ io_STORE_SIZE [1:0] $end
     $var wire  1 e! io_UPDATE_PC $end
     $var wire  1 [ io_WRITE_EN $end
     $var wire  5 '& lo [4:0] $end
     $var wire  3 7& lo_1 [2:0] $end
     $var wire  1 G& lo_3 $end
     $var wire  4 W& lo_4 [3:0] $end
     $var wire  8 _& lo_6 [7:0] $end
     $var wire 10 o& lo_7 [9:0] $end
     $var wire  1 Y+ reset $end
     $var wire  3 ]% stallState [2:0] $end
     $var wire  3 U% stateReg [2:0] $end
    $upscope $end
    $scope module dataPath $end
     $var wire 32 w& ALU_in1 [31:0] $end
     $var wire 32 !' ALU_in2 [31:0] $end
     $var wire  1 Q+ clock $end
     $var wire  1 Q+ cpuALU_clock $end
     $var wire  4 c cpuALU_io_ALU_OP [3:0] $end
     $var wire 32 w& cpuALU_io_ALUinput1 [31:0] $end
     $var wire 32 !' cpuALU_io_ALUinput2 [31:0] $end
     $var wire 32 5% cpuALU_io_ALUoutput [31:0] $end
     $var wire  1 {$ cpuALU_io_EQUAL $end
     $var wire  1 %% cpuALU_io_LESS_THAN $end
     $var wire  1 -% cpuALU_io_SIGNED_LESS_THAN $end
     $var wire  1 Y+ cpuALU_reset $end
     $var wire  4 c io_ALU_OP [3:0] $end
     $var wire  1 K$ io_CHOOSE_IMMEDIATE $end
     $var wire  1 s io_CHOOSE_MEMORY_LOAD $end
     $var wire  1 s$ io_CHOOSE_PC $end
     $var wire  1 {$ io_EQUAL $end
     $var wire 32 { io_IMMEDIATE [31:0] $end
     $var wire  1 %% io_LESS_THAN $end
     $var wire 32 I# io_PC [31:0] $end
     $var wire  1 k io_PROCEDURE_BRANCHING $end
     $var wire  5 S io_RD [4:0] $end
     $var wire  5 C io_RS1 [4:0] $end
     $var wire  5 K io_RS2 [4:0] $end
     $var wire  1 -% io_SIGNED_LESS_THAN $end
     $var wire  1 [ io_WRITE_EN $end
     $var wire 32 5% io_instruction_next_address [31:0] $end
     $var wire 32 E% io_instruction_return_address [31:0] $end
     $var wire 32 5% io_load_address [31:0] $end
     $var wire 32 =% io_load_data [31:0] $end
     $var wire 32 5% io_store_address [31:0] $end
     $var wire 32 m! io_store_data [31:0] $end
     $var wire 32 O" rdData [31:0] $end
     $var wire  1 Q+ registerFile_clock $end
     $var wire  5 S registerFile_io_RD [4:0] $end
     $var wire  5 C registerFile_io_RS1 [4:0] $end
     $var wire  5 K registerFile_io_RS2 [4:0] $end
     $var wire  1 [ registerFile_io_WRITE_EN $end
     $var wire 32 G" registerFile_io_rdData [31:0] $end
     $var wire 32 7" registerFile_io_rs1Data [31:0] $end
     $var wire 32 ?" registerFile_io_rs2Data [31:0] $end
     $var wire  1 Y+ reset $end
     $var wire 32 W" rs1_ALU [31:0] $end
     $var wire 32 _" rs2_ALU [31:0] $end
     $var wire 32 g" rs2_ALU_rd [31:0] $end
     $scope module cpuALU $end
      $var wire 32 5% ALUoutput [31:0] $end
      $var wire  1 {$ EQUAL $end
      $var wire  1 %% LESS_THAN $end
      $var wire  1 -% SIGNED_LESS_THAN $end
      $var wire  1 Q+ clock $end
      $var wire  4 c io_ALU_OP [3:0] $end
      $var wire 32 w& io_ALUinput1 [31:0] $end
      $var wire 32 !' io_ALUinput2 [31:0] $end
      $var wire 32 5% io_ALUoutput [31:0] $end
      $var wire  1 {$ io_EQUAL $end
      $var wire  1 %% io_LESS_THAN $end
      $var wire  1 -% io_SIGNED_LESS_THAN $end
      $var wire  1 Y+ reset $end
     $upscope $end
     $scope module registerFile $end
      $var wire  1 Q+ clock $end
      $var wire  5 S io_RD [4:0] $end
      $var wire  5 C io_RS1 [4:0] $end
      $var wire  5 K io_RS2 [4:0] $end
      $var wire  1 [ io_WRITE_EN $end
      $var wire 32 G" io_rdData [31:0] $end
      $var wire 32 7" io_rs1Data [31:0] $end
      $var wire 32 ?" io_rs2Data [31:0] $end
      $var wire 32 )' registerFile_0 [31:0] $end
      $var wire 32 1' registerFile_1 [31:0] $end
      $var wire 32 y' registerFile_10 [31:0] $end
      $var wire 32 #( registerFile_11 [31:0] $end
      $var wire 32 +( registerFile_12 [31:0] $end
      $var wire 32 3( registerFile_13 [31:0] $end
      $var wire 32 ;( registerFile_14 [31:0] $end
      $var wire 32 C( registerFile_15 [31:0] $end
      $var wire 32 K( registerFile_16 [31:0] $end
      $var wire 32 S( registerFile_17 [31:0] $end
      $var wire 32 [( registerFile_18 [31:0] $end
      $var wire 32 c( registerFile_19 [31:0] $end
      $var wire 32 9' registerFile_2 [31:0] $end
      $var wire 32 k( registerFile_20 [31:0] $end
      $var wire 32 s( registerFile_21 [31:0] $end
      $var wire 32 {( registerFile_22 [31:0] $end
      $var wire 32 %) registerFile_23 [31:0] $end
      $var wire 32 -) registerFile_24 [31:0] $end
      $var wire 32 5) registerFile_25 [31:0] $end
      $var wire 32 =) registerFile_26 [31:0] $end
      $var wire 32 E) registerFile_27 [31:0] $end
      $var wire 32 M) registerFile_28 [31:0] $end
      $var wire 32 U) registerFile_29 [31:0] $end
      $var wire 32 A' registerFile_3 [31:0] $end
      $var wire 32 ]) registerFile_30 [31:0] $end
      $var wire 32 e) registerFile_31 [31:0] $end
      $var wire 32 I' registerFile_4 [31:0] $end
      $var wire 32 Q' registerFile_5 [31:0] $end
      $var wire 32 Y' registerFile_6 [31:0] $end
      $var wire 32 a' registerFile_7 [31:0] $end
      $var wire 32 i' registerFile_8 [31:0] $end
      $var wire 32 q' registerFile_9 [31:0] $end
     $upscope $end
    $upscope $end
    $scope module loadUnit $end
     $var wire  1 W* EXTENSION $end
     $var wire  2 O* LOAD_SIZE [1:0] $end
     $var wire  1 g* MSB $end
     $var wire  1 Q+ clock $end
     $var wire 24 1+ extending_mask [23:0] $end
     $var wire 16 w* hi [15:0] $end
     $var wire 24 9+ hi_1 [23:0] $end
     $var wire 24 I+ hi_2 [23:0] $end
     $var wire  1 c$ io_EXTENSION $end
     $var wire  1 M! io_LOAD_ADDRESS_IN $end
     $var wire  1 =! io_LOAD_READY $end
     $var wire  2 E! io_LOAD_SIZE [1:0] $end
     $var wire  8 1# io_load_data [7:0] $end
     $var wire 32 =% io_load_data_out [31:0] $end
     $var wire 32 5% io_load_mem_address_in [31:0] $end
     $var wire 32 # io_load_mem_address_out [31:0] $end
     $var wire  8 !+ lo [7:0] $end
     $var wire  8 A+ lo_1 [7:0] $end
     $var wire 32 G* load_data_address_buffer [31:0] $end
     $var wire 32 7* load_data_buffer [31:0] $end
     $var wire  2 ?* load_data_size_buffer [1:0] $end
     $var wire 24 )+ mask [23:0] $end
     $var wire  1 o* needMask $end
     $var wire  1 Y+ reset $end
     $var wire  1 _* stateReg $end
    $upscope $end
    $scope module storeUnit $end
     $var wire  1 Q+ clock $end
     $var wire  1 5! io_ADDRESS_IN $end
     $var wire  1 -! io_DATA_IN $end
     $var wire  1 S$ io_STORE_READY $end
     $var wire  2 [$ io_STORE_SIZE [1:0] $end
     $var wire  1 Q# io_mem_write $end
     $var wire 32 ; io_mem_write_address [31:0] $end
     $var wire  8 3 io_mem_write_data [7:0] $end
     $var wire 32 5% io_store_address [31:0] $end
     $var wire 32 m! io_store_data [31:0] $end
     $var wire 24 /* lo [23:0] $end
     $var wire  1 Y+ reset $end
     $var wire  1 '* stateReg $end
     $var wire 32 m) store_data_buffer [31:0] $end
     $var wire 32 }) store_data_buffer_address [31:0] $end
     $var wire  2 u) store_data_size_buffer [1:0] $end
     $var wire  1 Q# storing $end
    $upscope $end
   $upscope $end
  $upscope $end
 $upscope $end
$enddefinitions $end


#8
b00000000000000000000000000000000 #
b00000000000000000000000000000000 +
b00000000 3
b00000000000000000000000000000000 ;
b00000 C
b00000 K
b00000 S
0[
b0000 c
0k
0s
b00000000000000000000000000000000 {
b00000000000000000000000000000000 %!
0-!
05!
1=!
b00 E!
0M!
b01 U!
0]!
0e!
b00000000000000000000000000000000 m!
b00000000000000000000000000000000 u!
0}!
0'"
0/"
b00000000000000000000000000000000 7"
b00000000000000000000000000000000 ?"
b00000000000000000000000000000000 G"
b00000000000000000000000000000000 O"
b00000000000000000000000000000000 W"
b00000000000000000000000000000000 _"
b00000000000000000000000000000000 g"
0o"
b00000000 w"
b00000000000000000000000000000000 !#
b0000000000 )#
b00000000 1#
b00000000000000000000000000000000 9#
0A#
b00000000000000000000000000000000 I#
0Q#
b000000000000000000000000000000 Y#
b00000000 a#
b0000000000 i#
b00000000 q#
0y#
b00000000000000000000000000000000 #$
b0000000000 +$
b00000000000000000000000000000000 3$
0;$
0C$
0K$
1S$
b01 [$
0c$
0k$
0s$
0{$
0%%
0-%
b00000000000000000000000000000000 5%
b00000000000000000000000000000000 =%
b00000000000000000000000000000100 E%
0M%
b000 U%
b000 ]%
b00000000000000000000000000000000 e%
0m%
0u%
b0000000 }%
b00000 '&
0/&
b000 7&
0?&
0G&
b000000 O&
b0000 W&
b00000000 _&
0g&
b0000000000 o&
b00000000000000000000000000000000 w&
b00000000000000000000000000000000 !'
b00000000000000000000000000000000 )'
b00000000000000000000000000000000 1'
b00000000000000000000000000000000 9'
b00000000000000000000000000000000 A'
b00000000000000000000000000000000 I'
b00000000000000000000000000000000 Q'
b00000000000000000000000000000000 Y'
b00000000000000000000000000000000 a'
b00000000000000000000000000000000 i'
b00000000000000000000000000000000 q'
b00000000000000000000000000000000 y'
b00000000000000000000000000000000 #(
b00000000000000000000000000000000 +(
b00000000000000000000000000000000 3(
b00000000000000000000000000000000 ;(
b00000000000000000000000000000000 C(
b00000000000000000000000000000000 K(
b00000000000000000000000000000000 S(
b00000000000000000000000000000000 [(
b00000000000000000000000000000000 c(
b00000000000000000000000000000000 k(
b00000000000000000000000000000000 s(
b00000000000000000000000000000000 {(
b00000000000000000000000000000000 %)
b00000000000000000000000000000000 -)
b00000000000000000000000000000000 5)
b00000000000000000000000000000000 =)
b00000000000000000000000000000000 E)
b00000000000000000000000000000000 M)
b00000000000000000000000000000000 U)
b00000000000000000000000000000000 ])
b00000000000000000000000000000000 e)
b00000000000000000000000000000000 m)
b00 u)
b00000000000000000000000000000000 })
0'*
b000000000000000000000000 /*
b00000000000000000000000000000000 7*
b00 ?*
b00000000000000000000000000000000 G*
b00 O*
0W*
0_*
0g*
0o*
b0000000000000000 w*
b00000000 !+
b000000000000000000000000 )+
b000000000000000000000000 1+
b000000000000000000000000 9+
b00000000 A+
b000000000000000000000000 I+
0Q+
0Y+
0a+
b00000000 i+
b00000000000000000000000000000000 q+
1y+
b00000100000000000000000001101111 #,
b00000000000000000000000000000000 +,
03,
1;,
0C,
b00000000 K,
b00000000000000000000000000000000 S,
b00000000000000000000000000000000 [,
b00000000000000000000000000000000 c,
b0000000000 k,
1s,
#10
b00000100000000000000000001101111 +
b00000100000000000000000001101111 #$
b00000100000000000000000001101111 3$
1;$
1{$
1m%
1u%
1Q+
b00000100000000000000000001101111 [,
#15
0Q+
#18
b00000000000100000000010110010011 #,
b00000000000000000000000000000001 +,
b0000000001 k,
#20
b00000000000100000000010110010011 3$
0;$
1Q+
#25
0Q+
#28
b00000000000001010001010001100011 #,
b00000000000000000000000000000010 +,
b0000000010 k,
#30
b00000000000001010001010001100011 3$
1Q+
#35
0Q+
#38
b00000000000000001000000001100111 #,
b00000000000000000000000000000011 +,
b0000000011 k,
#40
b00000000000000001000000001100111 3$
1Q+
#45
0Q+
#48
b00000000000001010000001010010011 #,
b00000000000000000000000000000100 +,
b0000000100 k,
#50
b00000000000001010000001010010011 3$
1Q+
#55
0Q+
#58
b00000000000001011000001100010011 #,
b00000000000000000000000000000101 +,
b0000000101 k,
#60
b00000000000001011000001100010011 3$
1Q+
#65
0Q+
#68
b00000000000100101111001110010011 #,
b00000000000000000000000000000110 +,
b0000000110 k,
#70
b00000000000100101111001110010011 3$
1Q+
#75
0Q+
#78
b00000000000000111001010001100011 #,
b00000000000000000000000000000111 +,
b0000000111 k,
#80
b00000000000000111001010001100011 3$
1Q+
#85
0Q+
#88
b00000000011001011000010110110011 #,
b00000000000000000000000000001000 +,
b0000001000 k,
#90
b00000000011001011000010110110011 3$
1Q+
#95
0Q+
#98
b00000000000101011001010110010011 #,
b00000000000000000000000000001001 +,
b0000001001 k,
#100
b00000000000101011001010110010011 3$
1Q+
#105
0Q+
#108
b00000000000100101101001010010011 #,
b00000000000000000000000000001010 +,
b0000001010 k,
#110
b00000000000100101101001010010011 3$
1Q+
#115
0Q+
#118
b00000000000000101000011001100011 #,
b00000000000000000000000000001011 +,
b0000001011 k,
#120
b00000000000000101000011001100011 3$
1Q+
#125
0Q+
#128
b00000000000100110101001100010011 #,
b00000000000000000000000000001100 +,
b0000001100 k,
#130
b00000000000100110101001100010011 3$
1Q+
#135
0Q+
#138
b11111110010111111111000001101111 #,
b00000000000000000000000000001101 +,
b0000001101 k,
#140
b11111110010111111111000001101111 3$
1Q+
#145
0Q+
#148
b11111111111101010000010100010011 #,
b00000000000000000000000000001110 +,
b0000001110 k,
#150
b11111111111101010000010100010011 3$
1Q+
#155
0Q+
#158
b11111100110111111111000001101111 #,
b00000000000000000000000000001111 +,
b0000001111 k,
#160
b11111100110111111111000001101111 3$
1Q+
#165
0Q+
#168
b10101010101010101011000010110111 #,
b00000000000000000000000000010000 +,
b0000010000 k,
#170
b10101010101010101011000010110111 3$
1Q+
#175
0Q+
#178
b10101010101000001000000010010011 #,
b00000000000000000000000000010001 +,
b0000010001 k,
#180
b10101010101000001000000010010011 3$
1Q+
#185
0Q+
#188
b01010101010101010101000100110111 #,
b00000000000000000000000000010010 +,
b0000010010 k,
#190
b01010101010101010101000100110111 3$
1Q+
#195
0Q+
#198
b01010101010100010000000100010011 #,
b00000000000000000000000000010011 +,
b0000010011 k,
#200
b01010101010100010000000100010011 3$
1Q+
#205
0Q+
#208
b00000000001000001111000110110011 #,
b00000000000000000000000000010100 +,
b0000010100 k,
#210
b00000000001000001111000110110011 3$
1Q+
#215
0Q+
#218
b00000000001000001111000000110011 #,
b00000000000000000000000000010101 +,
b0000010101 k,
#220
b00000000001000001111000000110011 3$
1Q+
#225
0Q+
#228
b00000000001000001110001000110011 #,
b00000000000000000000000000010110 +,
b0000010110 k,
#230
b00000000001000001110001000110011 3$
1Q+
#235
0Q+
#238
b00000000001000001110000000110011 #,
b00000000000000000000000000010111 +,
b0000010111 k,
#240
b00000000001000001110000000110011 3$
1Q+
#245
0Q+
#248
b00000000000100000000001010010011 #,
b00000000000000000000000000011000 +,
b0000011000 k,
#250
b00000000000100000000001010010011 3$
1Q+
#255
0Q+
#258
b01000000010100001101001100110011 #,
b00000000000000000000000000011001 +,
b0000011001 k,
#260
b01000000010100001101001100110011 3$
1Q+
#265
0Q+
#268
b00000000000100101001001010010011 #,
b00000000000000000000000000011010 +,
b0000011010 k,
#270
b00000000000100101001001010010011 3$
1Q+
#275
0Q+
#278
b01000000010100001101001100110011 #,
b00000000000000000000000000011011 +,
b0000011011 k,
#280
b01000000010100001101001100110011 3$
1Q+
#285
0Q+
#288
b11111110010100000001110011100011 #,
b00000000000000000000000000011100 +,
b0000011100 k,
#290
b11111110010100000001110011100011 3$
1Q+
#295
0Q+
#298
b00000000000100000000001010010011 #,
b00000000000000000000000000011101 +,
b0000011101 k,
#300
b00000000000100000000001010010011 3$
1Q+
#305
0Q+
#308
b00000000010100001101001100110011 #,
b00000000000000000000000000011110 +,
b0000011110 k,
#310
b00000000010100001101001100110011 3$
1Q+
#315
0Q+
#318
b00000000000100101001001010010011 #,
b00000000000000000000000000011111 +,
b0000011111 k,
#320
b00000000000100101001001010010011 3$
1Q+
#325
0Q+
#328
b00000000010100001101001100110011 #,
b00000000000000000000000000100000 +,
b0000100000 k,
#330
b00000000010100001101001100110011 3$
1Q+
#335
0Q+
#338
b11111110000000101001110011100011 #,
b00000000000000000000000000100001 +,
b0000100001 k,
#340
b11111110000000101001110011100011 3$
1Q+
#345
0Q+
#348
b00000000001000001100001110110011 #,
b00000000000000000000000000100010 +,
b0000100010 k,
#350
b00000000001000001100001110110011 3$
1Q+
#355
0Q+
#358
b00000000001000001100000000110011 #,
b00000000000000000000000000100011 +,
b0000100011 k,
#360
b00000000001000001100000000110011 3$
1Q+
#365
0Q+
#368
b00000000000100100101010000010011 #,
b00000000000000000000000000100100 +,
b0000100100 k,
#370
b00000000000100100101010000010011 3$
1Q+
#375
0Q+
#378
b00000000000100000000010010010011 #,
b00000000000000000000000000100101 +,
b0000100101 k,
#380
b00000000000100000000010010010011 3$
1Q+
#385
0Q+
#388
b00000001111001001001010010010011 #,
b00000000000000000000000000100110 +,
b0000100110 k,
#390
b00000001111001001001010010010011 3$
1Q+
#395
0Q+
#398
b11111111111101001100010100010011 #,
b00000000000000000000000000100111 +,
b0000100111 k,
#400
b11111111111101001100010100010011 3$
1Q+
#405
0Q+
#408
b00000000101001001011010110110011 #,
b00000000000000000000000000101000 +,
b0000101000 k,
#410
b00000000101001001011010110110011 3$
1Q+
#415
0Q+
#418
b00000000101001001010011000110011 #,
b00000000000000000000000000101001 +,
b0000101001 k,
#420
b00000000101001001010011000110011 3$
1Q+
#425
0Q+
#428
b00000000000101010000010100010011 #,
b00000000000000000000000000101010 +,
b0000101010 k,
#430
b00000000000101010000010100010011 3$
1Q+
#435
0Q+
#438
b00000000101001001011010110110011 #,
b00000000000000000000000000101011 +,
b0000101011 k,
#440
b00000000101001001011010110110011 3$
1Q+
#445
0Q+
#448
b00000000101001001010011000110011 #,
b00000000000000000000000000101100 +,
b0000101100 k,
#450
b00000000101001001010011000110011 3$
1Q+
#455
0Q+
#458
b00000000000101010000010100010011 #,
b00000000000000000000000000101101 +,
b0000101101 k,
#460
b00000000000101010000010100010011 3$
1Q+
#465
0Q+
#468
b00000000101001001011010110110011 #,
b00000000000000000000000000101110 +,
b0000101110 k,
#470
b00000000101001001011010110110011 3$
1Q+
#475
0Q+
#478
b00000000101001001010011000110011 #,
b00000000000000000000000000101111 +,
b0000101111 k,
#480
b00000000101001001010011000110011 3$
1Q+
#485
0Q+
#488
b00000000000100000000001010010011 #,
b00000000000000000000000000110000 +,
b0000110000 k,
#490
b00000000000100000000001010010011 3$
1Q+
#495
0Q+
#498
b00000000010100001001011010110011 #,
b00000000000000000000000000110001 +,
b0000110001 k,
#500
b00000000010100001001011010110011 3$
1Q+
#505
0Q+
#508
b00000000000100101001001010010011 #,
b00000000000000000000000000110010 +,
b0000110010 k,
#510
b00000000000100101001001010010011 3$
1Q+
#515
0Q+
#518
b00000000010100001001011010110011 #,
b00000000000000000000000000110011 +,
b0000110011 k,
#520
b00000000010100001001011010110011 3$
1Q+
#525
0Q+
#528
b11111110000000101001110011100011 #,
b00000000000000000000000000110100 +,
b0000110100 k,
