Kaveesha/Testing_load_unit/LoadUnit/led_movertrace.vcd
$version Generated by VerilatedVcd $end
$date Mon Oct 25 23:11:16 2021
 $end
$timescale   1ns $end

 $scope module TOP $end
  $var wire  1 k clock $end
  $var wire  1 =! io_LOAD_ADDRESS_IN $end
  $var wire  1 M! io_LOAD_READY $end
  $var wire  2 5! io_LOAD_SIZE [1:0] $end
  $var wire  1 -! io_LOAD_TO_REG $end
  $var wire  8 %! io_load_data [7:0] $end
  $var wire 32 ]! io_load_data_out [31:0] $end
  $var wire 32 { io_load_mem_address_in [31:0] $end
  $var wire 32 U! io_load_mem_address_out [31:0] $end
  $var wire  1 E! io_mem_read $end
  $var wire  1 s reset $end
  $scope module Load_Unit $end
   $var wire  1 k clock $end
   $var wire  2 K cntReg [1:0] $end
   $var wire  1 ; count_begin $end
   $var wire  1 =! io_LOAD_ADDRESS_IN $end
   $var wire  1 M! io_LOAD_READY $end
   $var wire  2 5! io_LOAD_SIZE [1:0] $end
   $var wire  1 -! io_LOAD_TO_REG $end
   $var wire  8 %! io_load_data [7:0] $end
   $var wire 32 ]! io_load_data_out [31:0] $end
   $var wire 32 { io_load_mem_address_in [31:0] $end
   $var wire 32 U! io_load_mem_address_out [31:0] $end
   $var wire  1 E! io_mem_read $end
   $var wire  1 C load_begin $end
   $var wire 32 3 load_data_address_buffer [31:0] $end
   $var wire 32 # load_data_buffer [31:0] $end
   $var wire  2 + load_data_size_buffer [1:0] $end
   $var wire  1 [ loading $end
   $var wire  1 S reading $end
   $var wire  1 s reset $end
   $var wire  1 c stateReg $end
  $upscope $end
 $upscope $end
$enddefinitions $end


#8
b00000000000000000000000000000000 #
b00 +
b00000000000000000000000000000000 3
0;
0C
b00 K
0S
0[
0c
0k
0s
b00000000000000000000000000000000 {
b00010010 %!
0-!
b00 5!
0=!
1E!
1M!
b00000000000000000000000000000000 U!
b00000000000000000000000000000000 ]!
#10
b01 +
b00000000000000000000000000000001 3
1;
1k
b00000000000000000000000000000001 U!
#15
0k
#18
#20
b10 +
b00000000000000000000000000000010 3
b01 K
1k
b00000000000000000000000000000010 U!
#25
0k
#28
#30
b11 +
b00000000000000000000000000000011 3
b10 K
1k
b00000000000000000000000000000011 U!
#35
0k
#38
#40
b00000000000000000000000000010010 #
1C
b00 K
1S
1[
1k
0E!
b00000000000000000000000000000000 U!
#45
0k
#48
#50
b01 K
1k
#55
0k
#58
#60
b10 K
1k
#65
0k
#68
#70
0;
b00 K
1k
