Kaveesha/LoadUnit/Load_Unittrace.vcd
$version Generated by VerilatedVcd $end
$date Wed Nov  3 09:42:00 2021
 $end
$timescale   1ns $end

 $scope module TOP $end
  $var wire  1 c clock $end
  $var wire  1 5! io_LOAD_ADDRESS_IN $end
  $var wire  1 E! io_LOAD_READY $end
  $var wire  2 -! io_LOAD_SIZE [1:0] $end
  $var wire  1 %! io_LOAD_TO_REG $end
  $var wire  1 U! io_load_begin $end
  $var wire  8 { io_load_data [7:0] $end
  $var wire 32 ]! io_load_data_out [31:0] $end
  $var wire 32 s io_load_mem_address_in [31:0] $end
  $var wire 32 M! io_load_mem_address_out [31:0] $end
  $var wire  1 =! io_mem_read $end
  $var wire  1 k reset $end
  $scope module Load_Unit $end
   $var wire  1 c clock $end
   $var wire  1 5! io_LOAD_ADDRESS_IN $end
   $var wire  1 E! io_LOAD_READY $end
   $var wire  2 -! io_LOAD_SIZE [1:0] $end
   $var wire  1 %! io_LOAD_TO_REG $end
   $var wire  1 U! io_load_begin $end
   $var wire  8 { io_load_data [7:0] $end
   $var wire 32 ]! io_load_data_out [31:0] $end
   $var wire 32 s io_load_mem_address_in [31:0] $end
   $var wire 32 M! io_load_mem_address_out [31:0] $end
   $var wire  1 =! io_mem_read $end
   $var wire 32 ; load_data_address_buffer [31:0] $end
   $var wire 32 # load_data_buffer [31:0] $end
   $var wire 24 [ load_data_buffer_hi [23:0] $end
   $var wire  2 + load_data_size_buffer [1:0] $end
   $var wire  2 3 loaded_data_size_buffer [1:0] $end
   $var wire  1 K loading $end
   $var wire  1 C reading $end
   $var wire  1 k reset $end
   $var wire  1 S stateReg $end
  $upscope $end
 $upscope $end
$enddefinitions $end


#8
b00000000000000000000000000000000 #
b00 +
b00 3
b00000000000000000000000000000000 ;
0C
0K
0S
b000000000000000000000000 [
0c
0k
b00000000000000000000000000000000 s
b00001010 {
0%!
b00 -!
15!
0=!
0E!
b00000000000000000000000000000000 M!
1U!
b00000000000000000000000000000000 ]!
#10
1C
1S
1c
1=!
#15
0c
#18
#20
b01 +
b00000000000000000000000000000001 ;
1K
1c
b00000000000000000000000000000001 M!
#25
0c
#28
#30
b10 +
b01 3
b00000000000000000000000000000010 ;
1c
b00000000000000000000000000000010 M!
#35
0c
#38
#40
b11 +
b10 3
b00000000000000000000000000000011 ;
1c
b00000000000000000000000000000011 M!
#45
0c
#48
#50
b11 3
0C
1c
0=!
b00000000000000000000000000000000 M!
#55
0c
#58
#60
b00000000000000000000000000001010 #
0K
b000000000000000000001010 [
1c
#65
0c
#68
#70
1K
1c
#75
0c
#78
#80
b00000000000000000000101000001010 #
0K
b000000000000101000001010 [
1c
#85
0c
#88
#90
1K
1c
#95
0c
#98
#100
b00000000000010100000101000001010 #
0K
b000010100000101000001010 [
1c
#105
0c
#108
#110
1K
1c
#115
0c
#118
#120
b00001010000010100000101000001010 #
0K
1c
#125
0c
#128
#130
1K
1c
#135
0c
#138
#140
0K
1c
#145
0c
#148
#150
1K
1c
#155
0c
#158
#160
0K
1c
#165
0c
#168
#170
1K
1c
#175
0c
#178
#180
0K
1c
#185
0c
#188
#190
1K
1c
#195
0c
#198
#200
0K
1c
